3753.289	-0.9871450071404709	1.3526941962166643	-1.8645690767209042	0.19787686850134806	0.18681154977878228
3753.322	-0.98941219000177	1.3450969886500326	-1.8570432064642641	0.19794418779999423	0.1875196961999909
3753.362	-0.991620557219984	1.3374866781300783	-1.8494807123592452	0.19793146309381077	0.18887677158132368
3753.402	-0.9937708151127989	1.3298462688978212	-1.84196883971178	0.198394734401734	0.18564155156227727
3753.44	-0.9958668874927893	1.3221868285499845	-1.8344902486512573	0.19981225282500803	0.19094359980175304
3753.482	-0.9979064966207754	1.314513025658162	-1.8270190894585707	0.19817308801677117	0.1890973417430324
3753.533	-0.9998885515988137	1.306825304202726	-1.819551056548704	0.1985547963300954	0.19053716535957996
3753.562	-1.0018102917654403	1.2991332577586576	-1.8120454985568553	0.1979571478192723	0.18915964185345732
3753.601	-1.003674380834319	1.2914166800177316	-1.8045794637353252	0.19851489984344164	0.18794870942816683
3753.638	-1.0054874462854122	1.283683568273923	-1.7970640073352928	0.20037365018277756	0.18918791046683797
3753.656	-1.0072355432219247	1.2759447177712886	-1.7895906820802425	0.1981600320101486	0.18613163103007493
3753.721	-1.0089250896134128	1.2681882794385673	-1.782119260060337	0.19853114096250263	0.18873214834638152
3753.758	-1.0105646150879204	1.2604247683011225	-1.7745658627461764	0.19951562217426744	0.1889332426418781
3753.802	-1.012139066595883	1.2526389885397555	-1.7670835582629651	0.19780114275887975	0.18560176840164497
3753.841	-1.013655263426428	1.2448414821237261	-1.759621220332538	0.1981747431678101	0.18324370222663172
3753.882	-1.0151167750562533	1.2370285990268681	-1.7521437825012303	0.19996828748071893	0.1909269846900342
3753.921	-1.0165187352366594	1.2292088788922282	-1.744680740902064	0.20061324390036073	0.19184709138489026
3753.96	-1.0178631122675048	1.2213775055753546	-1.7371895991579245	0.19874660434682195	0.18586251215672842
3753.999	-1.0191477663212838	1.2135394331636613	-1.7296905891842969	0.19865979897464542	0.18775126118850152
3754.041	-1.020376976205322	1.205690502034499	-1.7222221315355026	0.19853770928329678	0.18724707178356872
3754.081	-1.021545337812218	1.1978332726412224	-1.7147227230867643	0.19843905987460292	0.18573349642629824
3754.122	-1.0226518207938162	1.1899735899596586	-1.7072382276319962	0.19858991976951926	0.18821468847113737
3754.16	-1.0237023219063317	1.182098503324599	-1.6997296188039384	0.19868767781281288	0.1866863076884638
3754.202	-1.0246916770694843	1.174209505189251	-1.6922943435051807	0.1983562388485097	0.1827069632794911
3754.242	-1.025626136169668	1.1663136135262375	-1.6848123542404532	0.20057244473607655	0.19047228033455962
3754.285	-1.0265020878083533	1.158409144432161	-1.677320484147372	0.1987941570123423	0.19002839278297864
3754.325	-1.0273168033498874	1.1505014830842988	-1.6698293544248857	0.1990387446993258	0.19048170009374485
3754.361	-1.028070126245549	1.142590663255153	-1.6623363196027234	0.19877759779887746	0.18799920938607306
3754.4	-1.0287661182774166	1.134673144401174	-1.6548440547313452	0.19837527637667268	0.1861825880992003
3754.442	-1.0294058100880004	1.1267545030558423	-1.647350308591575	0.19840600249178353	0.18772285213457995
3754.484	-1.0299822735708868	1.1188193767731949	-1.6398987301347894	0.20001783549584873	0.18927408015491312
3754.523	-1.0305012641300553	1.1108920776385793	-1.6324288889114773	0.1988277362380409	0.18844817731211605
3754.561	-1.0309591845735018	1.1029530424337053	-1.6249460938945857	0.20036297937241	0.1893010726479012
3754.601	-1.0313614818286032	1.0950073942510157	-1.6174738454191018	0.1984221624387126	0.18431656306976812
3754.641	-1.0317019724529162	1.0870592278122668	-1.6100013181654391	0.20068182154667177	0.19076980271729688
3754.681	-1.0319863980358408	1.0791068431012134	-1.6025007318652267	0.1983143437823763	0.18563643083822778
3754.721	-1.0322081356739548	1.0711555152911374	-1.5950041116671687	0.19853494450183518	0.1847800972986466
3754.76	-1.0323696135005953	1.0632078897610229	-1.5875053010093518	0.19857935326709455	0.19142084836756182
3754.801	-1.0324686564598464	1.0552399689600085	-1.580094182239882	0.19947490951266622	0.18212221691043273
3754.841	-1.0325141785953205	1.0472864717700487	-1.5726979376784302	0.19827089562331496	0.18447373982381438
3754.881	-1.032504709419507	1.039345153148725	-1.565199676669587	0.19828717243470756	0.18849123599010953
3754.921	-1.0324278204101738	1.0313938451617437	-1.5576902710378	0.19848279443401087	0.18581970676354753
3754.961	-1.0322935114399647	1.0234280175764214	-1.5502385229422244	0.20001889060386913	0.17989998886948022
3755.002	-1.0320998608524414	1.0154238634739585	-1.54287704497496	0.19997330565047347	0.18268707410658747
3755.042	-1.0318490330581698	1.0074972402017637	-1.5355445062305215	0.19800184930067655	0.18713795272602288
3755.082	-1.0315479073302278	0.999561854176433	-1.5279670933790603	0.198360564281852	0.18820514606140315
3755.122	-1.0311795482938058	0.9916305009815587	-1.520410720259165	0.19807391512899888	0.1895052667472844
3755.159	-1.0307506081495956	0.9836987593836077	-1.5128463004497408	0.19826455115657912	0.19209147485545044
3755.201	-1.030260143366283	0.9757416565910554	-1.505374127871321	0.1993050041390679	0.18625340192181505
3755.244	-1.0297117123150734	0.9678114424656088	-1.4978939078397953	0.19892167443892925	0.185641676571068
3755.277	-1.0291164084867959	0.9599136325011153	-1.4903023611525692	0.19792228376582283	0.1948272143215099
3755.323	-1.0284526771112568	0.952018419145888	-1.4826371208206668	0.19808075269424544	0.19314585289883257
3755.361	-1.0277257717600534	0.9441188350860046	-1.4750152649363406	0.1982840419783444	0.19309335027593227
3755.402	-1.0269369465891087	0.93619546924341	-1.4674476606665654	0.20041320296611242	0.19073837241713065
3755.444	-1.0260857770674863	0.9282666955866316	-1.4599005150658393	0.19814896110858102	0.18772564515252463
3755.482	-1.0251834678114866	0.9203886548228217	-1.4524023602581861	0.1981036285725915	0.19011695746928228
3755.53	-1.024222921237564	0.9125281474532008	-1.444758515706129	0.19815291276440883	0.1894342112508819
3755.562	-1.0231979180635449	0.9046595235968783	-1.4371675664829087	0.19803668629837468	0.19033358006280876
3755.602	-1.0221024928584521	0.8967695080115106	-1.4296676815149083	0.20055667196458637	0.18536550528342588
3755.642	-1.0209511862131215	0.8888401272804326	-1.4222177519139982	0.19983087099744623	0.18419322123864745
3755.673	-1.0197360118981385	0.8809523675363283	-1.4148576653221703	0.1978179796609982	0.18355116631806256
3755.722	-1.0184877559276275	0.8731239388647335	-1.4072566694647508	0.1980807978642329	0.19318136348203113
3755.761	-1.0171717681072419	0.8653039951932033	-1.399590544624213	0.1981249296339986	0.19293754812628727
3755.799	-1.015791068756002	0.8574845581107322	-1.3919984415319377	0.1984407041135313	0.19147027226443397
3755.849	-1.0143423625808754	0.8496372879084222	-1.3844981966208412	0.20014809978124876	0.18705041145675866
3755.879	-1.0128329434938332	0.8417797271139329	-1.3770282595022487	0.19985978240905056	0.18478474124108737
3755.922	-1.0112707821555007	0.8339780599891566	-1.3696342960106769	0.19809568669899186	0.19019512312357303
3755.963	-1.0096702856443436	0.8262176424339371	-1.3619863581104625	0.19783042054423905	0.19141735908833007
3756.003	-1.0079983509491277	0.818468398103564	-1.3543465943272222	0.19804585977904016	0.19028072823249162
3756.039	-1.0062566198082763	0.8106863762458552	-1.3468284051087422	0.20086797291323816	0.18532863891807672
3756.08	-1.0044509657824725	0.8028736184117975	-1.3393373233038712	0.20081873659986574	0.18574997793634868
3756.118	-1.0025851580441667	0.7951082475326082	-1.331940703677757	0.1990956862361497	0.18340370518684831
3756.162	-1.000686001507507	0.7874092072845101	-1.3245507801018306	0.19796171574905372	0.18874350614582106
3756.205	-0.9987331378802632	0.7797345155371285	-1.3169061726002318	0.1981405061739948	0.19333709979795696
3756.244	-0.9967114830626908	0.7720655354446759	-1.3093227566677252	0.19819376566219707	0.18732410410156658
3756.282	-0.9946162293639162	0.7643377206689388	-1.3018363068028656	0.20084708111463997	0.1877226474912521
3756.322	-0.9924599167851615	0.7566218196731311	-1.2943755868860167	0.20079816338582396	0.1824173108656343
3756.361	-0.9902585078186064	0.7489766967186957	-1.28704264016184	0.19767621423390108	0.18826729351846147
3756.402	-0.9880266989159494	0.7413771231702878	-1.2793643843358964	0.19812848556486082	0.18976442551128223
3756.443	-0.9857235769060753	0.7337949044776702	-1.2716920392274162	0.19808763447190156	0.19043813463375153
3756.481	-0.9833518662696762	0.7262104243203311	-1.264123511688843	0.20007306587306659	0.18613609943453926
3756.521	-0.9809104501098905	0.7185801715701021	-1.2566062776243765	0.2001398502898512	0.1871013512618832
3756.56	-0.9784138743488067	0.7110023399471953	-1.2491691063640424	0.1988321259480289	0.1850395418625668
3756.609	-0.9758893515311295	0.7034945436439963	-1.241692219351254	0.19766969865692702	0.19174072094005515
3756.644	-0.9733091488812886	0.6960114161195449	-1.2340149736938912	0.19794454133679423	0.19230734624497312
3756.686	-0.970664339958686	0.6885379666878468	-1.2263760790694151	0.19817291592436168	0.19024443716788567
3756.72	-0.9679507451940212	0.6810448339902865	-1.2188233743745107	0.19991470275544565	0.19098800973915261
3756.763	-0.9651655396408624	0.6735357199401051	-1.2112391283927961	0.1997277154832049	0.18780616623913476
3756.801	-0.9623405360223393	0.6661127218449945	-1.203767695631935	0.1981485586271929	0.18866052151592708
3756.843	-0.9594821300413195	0.6587361176647626	-1.1961483148373655	0.19729597663707904	0.19062080675869747
3756.878	-0.9565600331035296	0.6513773507689332	-1.1885136213427647	0.19737754828712456	0.19159569613300692
3756.905	-0.9535785176615962	0.644036433507998	-1.1808999812051642	0.19775089004635635	0.18842801226179878
3756.962	-0.9505346686013318	0.6366965085827602	-1.173338866855244	0.20044650313094436	0.19415240593408697
3757.004	-0.9474336955669622	0.6293710497484758	-1.165687110304875	0.1983183942412891	0.18760328053222472
3757.042	-0.9442797928458062	0.6220951423121988	-1.1580912079918912	0.19738587687423442	0.1831026587309872
3757.083	-0.9410807283633634	0.6148506995530157	-1.150511231302241	0.1976471895631288	0.18200015449218404
3757.119	-0.9378222044450735	0.6076361733278921	-1.143000808014592	0.20005641224055343	0.19052962928273076
3757.157	-0.9345165987001093	0.6004375721345807	-1.1353406515755233	0.19780068178589816	0.18910387316288488
3757.202	-0.9311497327999415	0.5932625372338416	-1.127710285129257	0.1975415319929676	0.1842297315110229
3757.238	-0.927733734964497	0.586095843588524	-1.1199772616487635	0.19842803735091996	0.19394567862042134
3757.282	-0.9242676263562789	0.5789868843145239	-1.1122634712162887	0.19729406249191067	0.19400882504127331
3757.322	-0.9207561753663488	0.5719442700825872	-1.104605055180288	0.19698567937787337	0.19115412326791487
3757.364	-0.9171729645358833	0.564904943681481	-1.0970482579982235	0.19794803924018156	0.1935838040074179
3757.401	-0.9135398377502132	0.5578819280455408	-1.089552317976492	0.19807314421180738	0.18434148766199274
3757.442	-0.9098583173411212	0.5508549400181304	-1.0818914853280897	0.1985001178164159	0.19494778985671488
3757.481	-0.9061064224177848	0.543844249224342	-1.0740877866613487	0.19890981809403352	0.19617709168843814
3757.522	-0.9023060681252395	0.5368919160459924	-1.06628839609613	0.197186094777249	0.19249914839662058
3757.564	-0.8984742115741622	0.5300373290453669	-1.0587309758111294	0.19701533715129363	0.17921085875019974
3757.599	-0.8945730558031872	0.5231663927005449	-1.0513449640917183	0.19761105891859204	0.18198584504905327
3757.642	-0.8906240044677681	0.5163132347453618	-1.0440249863051638	0.19794129564129223	0.18404513394004138
3757.678	-0.886630346174866	0.5094778089805543	-1.0365101835542576	0.19861387740539274	0.19779485341923744
3757.714	-0.8825797764749126	0.5026619982868128	-1.0286801994106738	0.19798368503954117	0.1956688059840427
3757.762	-0.878475724518978	0.4959054132705698	-1.0208804566721723	0.19653840154377586	0.1920269930668809
3757.805	-0.8743398246964721	0.489230872601352	-1.0132626324228782	0.19711458356294723	0.18452716323515833
3757.841	-0.8701277590198421	0.4825480230444511	-1.0059971728162684	0.19672683650697947	0.18068801800580814
3757.88	-0.8658817776091121	0.47589533892641134	-0.9986478030982855	0.1971827206353223	0.18498836688283915
3757.922	-0.861590749461904	0.4692510548939185	-0.9910564695397427	0.19808436679159241	0.19596706153434273
3757.954	-0.857227013981057	0.4626386856774424	-0.9833049079354398	0.1974714591401793	0.19315627713431752
3758.003	-0.8528262953752207	0.45608648431295573	-0.9756029361329546	0.19726373831339242	0.19541240362253667
3758.042	-0.8483856222577376	0.4495991134117791	-0.9680424746388193	0.19705369537753617	0.17976540737704347
3758.081	-0.8438788606878052	0.4431100764430946	-0.9607267520306764	0.19764844894935368	0.18153012140661864
3758.123	-0.8393297649715635	0.4366442822743663	-0.9534015731060547	0.19730711899477374	0.1853513249753987
3758.164	-0.8347363871329045	0.43021274713089086	-0.9459262100541677	0.1974972812252051	0.19158352870786105
3758.202	-0.8300969384727385	0.4238049615245707	-0.9381075456592809	0.19824424417115355	0.19605207720002563
3758.243	-0.825395156108761	0.4174458057183761	-0.9303295687636468	0.19665157174017744	0.19431575996529732
3758.279	-0.8206607834437794	0.41116486189564067	-0.9226965672180653	0.19715770134045035	0.17922743182495737
3758.324	-0.8158651806555063	0.4048877482177472	-0.9154245035951601	0.19740575375244684	0.17887110030662823
3758.359	-0.8110269116274978	0.39863733469525586	-0.9081373505741557	0.19741044553359965	0.18099420169266756
3758.403	-0.8061432740346836	0.3924199270006639	-0.900780137531364	0.19734925792061847	0.18625848795217967
3758.432	-0.8012183444546707	0.38624043422925997	-0.8932891160484966	0.19720817911249633	0.1897294005356492
3758.483	-0.7962399755441649	0.3800744107741136	-0.8855025852778229	0.1979392496325617	0.19238041692422173
3758.521	-0.7912129340621349	0.37397551859199724	-0.8777918468391033	0.1967258081254778	0.19037341402969474
3758.566	-0.7861428872216996	0.36793920635388927	-0.8702369773354132	0.19690194082204993	0.17840035018756548
3758.603	-0.7810282228465744	0.36192020751550136	-0.862904178478446	0.1973548484287298	0.1818296871751927
3758.641	-0.7758701311014411	0.35593527342082676	-0.8555594164262719	0.19729673729951538	0.18304779387112277
3758.681	-0.770668860544478	0.34998732294551654	-0.8481551206598997	0.19730487571851874	0.1861908878007261
3758.72	-0.7654259561795063	0.34407760745689153	-0.8406322605331683	0.19758653601373888	0.18808282679466634
3758.762	-0.7601391987092282	0.338199856131303	-0.832763107200934	0.19696698517959535	0.1987472029749201
3758.801	-0.7548034643862609	0.33238230433214944	-0.8249594056915625	0.19666491936807579	0.1926104385272706
3758.842	-0.7494178614782124	0.3266189225057571	-0.8175785632886157	0.1975514883090695	0.1853506376538393
3758.886	-0.743993027279453	0.32087738886610134	-0.8102766602916606	0.19775614101441247	0.18160485256743683
3758.921	-0.7385266567573779	0.31517210605828705	-0.8029608928683536	0.19779115305003267	0.1854577790281429
3758.964	-0.7330208792067614	0.30950602252845427	-0.7955445455547021	0.19718272481516158	0.18493807177834956
3759.002	-0.7274738182390064	0.3038820499326904	-0.7880099451846462	0.1974508263319385	0.19111055098414073
3759.022	-0.7218682248857797	0.29827382567103367	-0.7802229944134208	0.19810134147833458	0.19192633711322288
3759.082	-0.7162218653706578	0.2927438628635415	-0.7725389244439144	0.196872188876013	0.18735100892896742
3759.117	-0.7105405943708426	0.2872611625090733	-0.7651679769617802	0.19766068690410993	0.1860021527937884
3759.161	-0.7048240858611925	0.2818119316758562	-0.7577879761359426	0.19792456282553242	0.18246431780901387
3759.201	-0.6990652333159157	0.27640336038214663	-0.7504146056526052	0.19769521246167163	0.18588727722585272
3759.242	-0.69326972996945	0.2710361843515003	-0.7429536603787799	0.19767478507957925	0.18866376629922155
3759.278	-0.6874347432241946	0.2657134193608882	-0.7354156859847794	0.19748564169541521	0.19079104614783854
3759.322	-0.6815502906198578	0.26041795194548134	-0.7274371684393887	0.19744773174922242	0.2001173470505256
3759.362	-0.6756240075043991	0.25520477519303697	-0.7198170804381416	0.19761437266543236	0.18263431290908472
3759.402	-0.6696647324525529	0.25002214930375266	-0.7124793988051	0.1974476551982518	0.1858779394071297
3759.445	-0.6636675303525981	0.24488098668923866	-0.705148177148933	0.19755549097627015	0.18720591785602977
3759.482	-0.6576333161957384	0.23978153843864988	-0.6977646698888144	0.19712737857890994	0.18653553854423194
3759.522	-0.651562910838413	0.2347267505196172	-0.690282834155766	0.19714652657413123	0.1876420806154176
3759.562	-0.6454504851978919	0.22971339891482942	-0.6827353011041902	0.19750556906889682	0.18764768713143204
3759.602	-0.639269641888863	0.22471680653330814	-0.6749464271841049	0.1988186154365902	0.19376714376825147
3759.641	-0.6330661247983995	0.21982200298720353	-0.6673934697291556	0.1970135711395789	0.18028436660316344
3759.682	-0.6268358687889379	0.21496041363100082	-0.6600152635638532	0.19758089233636622	0.18098962835004562
3759.722	-0.6205635896825242	0.21013788277538334	-0.6527348549162942	0.19816674727725542	0.18325004146063154
3759.763	-0.6142563647515887	0.20536560196342135	-0.6454324971010676	0.19822824113466692	0.18255309738357922
3759.801	-0.6079175377229014	0.20062635010362087	-0.6380782830751741	0.19800208502133682	0.18800199745172463
3759.842	-0.6015439315851249	0.19593394043200574	-0.6306312121156837	0.19800372965124424	0.18811790228355688
3759.882	-0.5951448243471624	0.19129632129105062	-0.622962647550786	0.19699440938659923	0.19841480335513473
3759.921	-0.5887225307780511	0.186726171654981	-0.6152336021332024	0.19741666290156834	0.18227036504215985
3759.958	-0.5822420194665265	0.18218965593578063	-0.60788707322092	0.1978039546428047	0.1907157353620662
3760.002	-0.5757308713753403	0.17769967342803816	-0.6004852750182833	0.19799866407374234	0.18605734369112256
3760.043	-0.5691849649867735	0.17325846357885563	-0.5931285896149747	0.19806081808983897	0.18330118444604665
3760.082	-0.5626052604072752	0.16886437533189289	-0.5858100647689384	0.19809053770416063	0.18445419018283782
3760.122	-0.5559931252522814	0.1645150084561771	-0.578491415647602	0.19813623979168088	0.18504469953430397
3760.152	-0.549348619847706	0.16021132479013664	-0.5711459900474897	0.19829592711574645	0.1840162480237685
3760.201	-0.5426728185797166	0.15595601511804932	-0.5637550536785342	0.19823470930751497	0.18485862784189303
3760.242	-0.5359665544748595	0.15175295013419415	-0.5563313422089121	0.1977475140206052	0.183284380075894
3760.277	-0.5292287058163188	0.14760263200649137	-0.5489426744446239	0.1977009937630719	0.18365969145964764
3760.322	-0.5224596790260783	0.14350073108057038	-0.5415530888677985	0.1982429412077411	0.18308020968252656
3760.362	-0.5156615091483785	0.13944967102549366	-0.534161829426621	0.19807197214289582	0.18493304732866006
3760.408	-0.508834593514911	0.1354507688492442	-0.5267749782209414	0.19740136866666708	0.18266526612694636
3760.442	-0.5019759654515229	0.13150190146778634	-0.5194162033176098	0.1975792159241935	0.1830070881453032
3760.481	-0.4950868806647113	0.12760215052719945	-0.5120753623078811	0.197715762123025	0.18322353484296933
3760.517	-0.4881686090046624	0.12375080362439818	-0.5047418727019279	0.19783312647974877	0.18177157251319678
3760.562	-0.4812215696485831	0.11994917038708026	-0.4974025137113172	0.19786304908094093	0.18136116086375437
3760.602	-0.47424670529650903	0.11619832490402705	-0.49005688631301786	0.19823242074086775	0.18578500557094577
3760.642	-0.4672435454347854	0.11249881974530825	-0.4827030479429333	0.19825030388669435	0.1848965505000807
3760.682	-0.46021558769411774	0.10885146449711289	-0.47533931882064895	0.1977815851253794	0.18206133378130013
3760.717	-0.45315194707930806	0.10524827272675026	-0.46787956257041785	0.19833854783340604	0.1825357562441536
3760.765	-0.44606124242292233	0.1016974201341658	-0.46036455227608836	0.19798443956686268	0.18957725110533957
3760.801	-0.43894392547787164	0.09820987091266355	-0.45288443050514554	0.19805483219134534	0.18631748929859193
3760.83	-0.431798316553597	0.09476746837656898	-0.4453909193449766	0.19879304212700122	0.1896832902846856
3760.883	-0.4246327674052356	0.09138213329218364	-0.4379117189384953	0.19841457907145155	0.1867139870256483
3760.921	-0.41744112736311684	0.08805323905231419	-0.4304675964619747	0.1976686383853008	0.18386812807285238
3760.966	-0.410223715656564	0.08477740822252852	-0.42303398694932	0.19785011410135186	0.1831229198345332
3761.006	-0.40297886648595144	0.08155372002108886	-0.41561438265550993	0.19893350541625018	0.1890506665269021
3761.044	-0.3957167917010592	0.07838192430195046	-0.40816077814426727	0.1983943887739806	0.1839345177207791
3761.082	-0.38842280692471254	0.07526470839296878	-0.400746709159345	0.19845104966734303	0.1827724446291989
3761.122	-0.3811084232709915	0.07219792851005334	-0.3932844941376168	0.19835062017487137	0.18960811738745767
3761.162	-0.3737771293638319	0.06919650651944709	-0.38586120765743087	0.19790778211637314	0.18616865799726406
3761.202	-0.36642206049852377	0.06624540948720967	-0.37842469431838793	0.1980249861483759	0.18347286820996248
3761.242	-0.3590449385570902	0.063350146520995	-0.3710189005790714	0.19845087114530097	0.18460793074498613
3761.28	-0.351645413148944	0.06051074594263918	-0.3636532556973433	0.1979967078765388	0.18347504419516286
3761.319	-0.3442238351190058	0.0577231744622064	-0.35631074657415523	0.19797636023373572	0.1834322738147959
3761.358	-0.3367811579795586	0.05498828476385079	-0.34897708263365984	0.1984551210731882	0.18529154942981757
3761.402	-0.32931648429884935	0.05230525922895435	-0.3416300852933857	0.19871911712987944	0.1830765952616617
3761.441	-0.32182308069443344	0.04967113074809843	-0.3342385997181585	0.19963760182523463	0.18821394358999508
3761.48	-0.314313654711654	0.04709238185478169	-0.3267589200950299	0.1980378627994538	0.18308571837096346
3761.522	-0.30679240531448704	0.044580440839960454	-0.3192977352004499	0.19786914022636123	0.18366398266164768
3761.562	-0.2992437964703643	0.04211683027070337	-0.3117896946919303	0.19789360161050884	0.18671038151519442
3761.62	-0.29167966332781614	0.03971834670589512	-0.3043186889258787	0.19786373446632421	0.1872484596242332
3761.665	-0.2840912560501302	0.03736679455291311	-0.29683434558619054	0.1985363030277345	0.18636803996094495
3761.669	-0.27649029314705587	0.035079027562502196	-0.2893908015576491	0.19818854752016749	0.18420638196962863
3761.755	-0.26886773584855633	0.0328406861465724	-0.28194797607817756	0.19896438816620415	0.18636666082259207
3761.78	-0.26122950500899356	0.0306656545664357	-0.27453852069057766	0.1992132809071689	0.1872230207356261
3761.815	-0.2535793845606956	0.028543985842677908	-0.2670955298351623	0.198614617421331	0.18887610768946103
3761.842	-0.24591354953743771	0.02647979333378432	-0.25963554267944666	0.1984460291552571	0.18319510445710024
3761.882	-0.23823059465602608	0.02447189147759396	-0.2521623873400837	0.19813020267771966	0.18455634905586135
3761.919	-0.2305345693208078	0.0225240642671212	-0.24471916424551962	0.19847697465163572	0.1881057736553819
3761.96	-0.22282326089603516	0.020630214988003253	-0.23724815650613265	0.19870140216373472	0.18711917493576105
3762.032	-0.21508553380698536	0.018794196461934778	-0.22979402883316394	0.19954733573448946	0.18632288909003508
3762.08	-0.20734400497661323	0.017019558172473827	-0.2223797575600439	0.19855332435918144	0.18739303057460663
3762.103	-0.1995987263991968	0.015304307001692226	-0.21499083812855108	0.19793977476520427	0.18334962372091898
3762.12	-0.19187736541641937	0.013642208865831555	-0.2078065459349623	0.1975744715513152	0.18065679251497035
3762.165	-0.1841010985164668	0.01203529079744374	-0.2005008811598893	0.19874224421059955	0.18333116251911752
3762.214	-0.17631215641074155	0.010479750305522222	-0.193170864600042	0.1985707141999266	0.18270506736264014
3762.254	-0.16847219746540343	0.008976071394763734	-0.1857953471930205	0.19996355177621172	0.18525732220228155
3762.287	-0.16065419907681056	0.007539894234306867	-0.17843201203020137	0.20042195592258388	0.18969314540526844
3762.322	-0.1528649403461535	0.0061579388915692125	-0.17107036370596132	0.19829064042367686	0.1861928150297001
3762.366	-0.14502719165010133	0.004834659112543924	-0.163584687578816	0.19845726459669397	0.18994076417558867
3762.426	-0.13717874323138934	0.0035712502385857083	-0.15611395000524317	0.1986024562630816	0.18800526202897969
3762.443	-0.1292902508244827	0.002354891898563787	-0.1486559292980097	0.20120100627855733	0.19019857860420003
3762.5	-0.1213952828813354	0.0012118538130300553	-0.1412352162847606	0.19848543439516564	0.18657398869389752
3762.52	-0.11356656575435371	0.00012767231194389835	-0.133941438240332	0.19729170068357896	0.18159655557864002
3762.561	-0.10576374915177048	-0.0009007714029990732	-0.126851597259165	0.19658061880967087	0.17608552682824105
3762.6	-0.09789651656150779	-0.0018702705312230831	-0.11960132952577823	0.19855598505169694	0.18257238607023127
3762.642	-0.08997835609189099	-0.0027946180919316017	-0.11229705298669321	0.20013577351660314	0.18343392400927327
3762.681	-0.08202792738994591	-0.0036609409815099164	-0.10496599882194838	0.19960234239010963	0.1826732242411264
3762.713	-0.07412756432007651	-0.004464997424175093	-0.09768848443244729	0.19850066432707114	0.18417795016758293
3762.765	-0.06628941762166661	-0.005220025062999663	-0.09046352995712478	0.19548792790823025	0.17332371928980744
3762.81	-0.05839676155675147	-0.005897408122398353	-0.08312655193269182	0.1982876396919574	0.18327466479630317
3762.841	-0.05050018724572351	-0.006534970950757333	-0.07578431409742521	0.19929430790829986	0.18172289584288706
3762.877	-0.04252030923528445	-0.007112600894698078	-0.06837834955024526	0.19998811574664305	0.1859565176162678
3762.935	-0.03456881005933546	-0.0076218575575976765	-0.061029828736544355	0.19844788690623555	0.1826798602092674
3762.973	-0.026717464084276277	-0.0080772588213419	-0.05384049920987861	0.19471251068109433	0.17596171465508523
3763.025	-0.018825300751450197	-0.00847652090371719	-0.04644951049858194	0.19848051211847179	0.1863732051550293
3763.042	-0.010902223212821902	-0.00881226708783293	-0.03897484121574436	0.199193222100019	0.18530041637945485
3763.082	-0.0029129165423813913	-0.009096268968288348	-0.03143122521436283	0.20043817766467245	0.1869080835640209
3763.126	0.005049605977397523	-0.009308722821437746	-0.024063833672505863	0.19815975993945448	0.17994568196498342
3763.164	0.012923100113240299	-0.009479741303742581	-0.016927315271896327	0.1955943845309153	0.17653189970853136
3763.199	0.020777042970374873	-0.009584202098663648	-0.009748069858005557	0.19784216781629912	0.1831049949745361
3763.242	0.028721988489356656	-0.009629940340640597	-0.002319895026169999	0.19902389378378232	0.1859212879880698
3763.289	0.03672604831833021	-0.009620907834110902	0.005070381341854447	0.20066085258460978	0.1867056541635435
3763.329	0.044701415706570116	-0.009543845939375689	0.012418086589735049	0.19823111889162448	0.18277710798408375
3763.362	0.05263382642988914	-0.009424628823191988	0.01985490016694887	0.19858198385357384	0.18732958307102807
3763.401	0.06057045429607885	-0.009238679987231048	0.027395180105917388	0.19827565503851685	0.18677478976935552
3763.442	0.06851860952563882	-0.008991083916614738	0.034914255986177395	0.1987612537304173	0.1852767915375457
3763.484	0.07650794465378438	-0.008680258065806279	0.04235519279609292	0.19945430219701676	0.18757624977853363
3763.525	0.08448525657944483	-0.008310442240150815	0.04971945179016423	0.19995085486370343	0.1843488929854225
3763.578	0.0924151835245125	-0.007890045005907877	0.05710006524376596	0.198609345496144	0.18666447537605885
3763.622	0.10034433906803893	-0.007412817224384081	0.06463582365058156	0.1986980916119138	0.1862801139591097
3763.652	0.10828437354703446	-0.006866275189348939	0.07211215108342997	0.2010208238229491	0.1919843923818147
3763.681	0.11627194269251812	-0.006262124986715538	0.0795287758754949	0.20095626936965105	0.18613289589342716
3763.73	0.12425676138223582	-0.005592870298654896	0.08692204910689089	0.19931853936237712	0.181820183272819
3763.767	0.13214731761586562	-0.004878061193990453	0.09424842180352262	0.1980297383751231	0.18633794099564802
3763.798	0.14004489568676137	-0.004107113965303683	0.10182267819107398	0.1977610262158751	0.18952351742483914
3763.843	0.14794720729914215	-0.0032728425262088714	0.10935646667941472	0.19836437303522303	0.1869834617502056
3763.903	0.15585848271569214	-0.0023760445923608244	0.1168386127864535	0.20019879007627794	0.18116369364086435
3763.928	0.1638053749956206	-0.0014140166425045918	0.12423270841974698	0.20006732523067797	0.18477853026905874
3763.973	0.17171919510026326	-0.00039425488696030395	0.1315792902307032	0.19860751194179863	0.18115528886295945
3764.001	0.17957265602221667	0.0006617417292625639	0.1391030398210631	0.1976669344748827	0.191967465847125
3764.05	0.18743025448143144	0.0017898756478336528	0.14672389431485255	0.19829823423856174	0.1908001095737104
3764.082	0.1952862192852043	0.0029751715395593924	0.1543416197208414	0.19901814066543577	0.18875054405145147
3764.121	0.2031833056359207	0.00423591225967406	0.16178199572283244	0.199130338216163	0.18670776544027737
3764.162	0.21106315992235195	0.005551330417259194	0.16920715093960614	0.19887472818025753	0.1868411564206077
3764.201	0.2188990129590011	0.006923648504455284	0.17654512777681208	0.19941593487512063	0.18214611807925649
3764.241	0.22668808621609446	0.00833812227401033	0.18393098552581666	0.19722236576577123	0.18790246849281478
3764.288	0.23446597132827782	0.009810386910280605	0.1915596852951408	0.19791854916829116	0.18982234523697594
3764.322	0.2422769797313553	0.011358927779182654	0.19904583636826575	0.20077143293943525	0.18804821577567027
3764.362	0.25016236107072143	0.012967592852946908	0.20666170011070883	0.20113081859801205	0.19092259839991024
3764.407	0.2579925878239999	0.01464711688617359	0.21413029442632986	0.19951518121928258	0.18325225949827467
3764.441	0.2657400537477852	0.016359789523412452	0.22146065081999547	0.19802814516396144	0.1867304641769453
3764.495	0.2734567566053044	0.018119294848948062	0.22909381932014336	0.19777945843585196	0.1897938583929848
3764.524	0.28117287937045377	0.019947452223371208	0.23668188266512258	0.19830291190129956	0.18906492915772535
3764.582	0.2889203563584025	0.021845556632979473	0.24420651305958785	0.20087967627110784	0.18657383091921956
3764.609	0.29670016071386	0.023807669535086638	0.2517247715280683	0.20011241085902326	0.18695518943241132
3764.658	0.3044297052666496	0.025830539413859127	0.25913025897408387	0.19868773467387413	0.18114019965949826
3764.686	0.3120854170900964	0.02787852515062782	0.26658659035218724	0.19778974039994138	0.1946121227229055
3764.721	0.31971942034929457	0.029986931424990686	0.2742674830804073	0.19788959705367795	0.19103664462109265
3764.777	0.32734432101223154	0.03215877381316117	0.28191114364011627	0.19800904481793627	0.19148336437157404
3764.834	0.33501244093971677	0.03440748924742578	0.2894567895531047	0.20027185851323154	0.18893846522813837
3764.863	0.34268728603346565	0.0367206185058475	0.29699093804206894	0.200010901667549	0.18900933118945623
3764.912	0.3502814613854528	0.039079422147888246	0.30437487002949754	0.19766054426585367	0.1841792615522464
3764.941	0.35782598791248066	0.04146556695113875	0.31195104796789985	0.19781625616865248	0.19379625174641577
3764.962	0.36535964465913423	0.043920212510538334	0.31962674841174865	0.19888861912485936	0.19078465156379246
3765.005	0.372887496100299	0.0464386538908461	0.32722521716892483	0.19951494626656707	0.18505005835967953
3765.042	0.3804714012237543	0.04904016096670248	0.33473872222948553	0.20093359115063372	0.1873023432846497
3765.079	0.3880150263305015	0.051695459453717785	0.3422221906816657	0.1990855329575085	0.1856181310822374
3765.122	0.3954652456150384	0.05437304340905345	0.3496951840065671	0.197297922183311	0.1918364141021112
3765.161	0.40289171129924606	0.0571051981101801	0.35734661841013554	0.197555387527166	0.19216291663506344
3765.2	0.4103062029767144	0.059899884568901454	0.3649916817481026	0.1978501827378288	0.18990849933885956
3765.245	0.41770031034954125	0.06275766148103584	0.37249912421977016	0.19851294251924234	0.18578592612426056
3765.282	0.42511084141767996	0.06567343466429396	0.38008145742997823	0.20063910814655583	0.1922982790314869
3765.328	0.43249170930959435	0.068646557868253	0.38769708939633013	0.19836637391195458	0.18502596165454116
3765.375	0.4398160343244319	0.07166554210079501	0.3952464738593078	0.19749594797059578	0.19081531410811692
3765.402	0.4471123785331082	0.07473478898309471	0.40288129468969797	0.19725428643299656	0.19075179265690934
3765.443	0.4543831268032411	0.0778608286392502	0.4105184596208214	0.19713859851977483	0.1901894997407258
3765.482	0.4616346321464102	0.0810428704856937	0.4181506792484371	0.19715964261011015	0.18933253952339277
3765.521	0.4688625211143864	0.08428136564142613	0.4257755020540775	0.19766274315503576	0.18939651456918372
3765.57	0.4760818937321727	0.08757551939240621	0.43346157659622214	0.1986224407346973	0.19287814655810348
3765.605	0.48327990362671314	0.09091605734238264	0.44118900561481067	0.19739280605527484	0.19125469530965344
3765.643	0.4903882687272135	0.09430170976883692	0.44883728370325404	0.1972247834630773	0.19224444435678986
3765.687	0.49746134950956	0.09773582394674848	0.45653670507506067	0.19682541760777178	0.19191352260689437
3765.733	0.5045296352214036	0.10125008547335063	0.4640787522621325	0.19761081692629215	0.18656002075806347
3765.764	0.5115972932763335	0.10481375420343289	0.47150094859803154	0.19776340770628614	0.1861131356580956
3765.802	0.5186675676309528	0.10842354192577218	0.4792597027193458	0.19813276103682564	0.19874002182876258
3765.842	0.5257090343787937	0.11211457212605974	0.48719285223793973	0.1986379263177102	0.19618840619156358
3765.881	0.5326651757765484	0.11583172260075049	0.49507002063321426	0.19575724026396632	0.19271512570319294
3765.935	0.5395646251749892	0.11960794741028363	0.5026193477087333	0.19692919862357997	0.1795663725131406
3765.982	0.5464707775636423	0.12344084418384701	0.50990695520759	0.19763719673307395	0.18252074647375224
3766.006	0.553362869021444	0.12732112179602362	0.5172182824630146	0.1980398291644559	0.185662967476559
3766.042	0.5602317726029535	0.131245496412013	0.5247390306298444	0.19889800551102146	0.1970735236706723
3766.084	0.5670989367831886	0.13524093717030577	0.5326362075521153	0.1984984417104352	0.19722885666623807
3766.131	0.573911127137056	0.13928912331712973	0.5404575199791207	0.1970040584466085	0.19378453455777986
3766.171	0.5806324579341533	0.14335655377420115	0.5481523938972859	0.19631520994904925	0.1909128590064423
3766.203	0.5873342031141895	0.14750310682418127	0.5555153885801281	0.19719573188812028	0.18146765863928327
3766.248	0.5940301448341999	0.15168811777530597	0.5629009217455041	0.19768854988614432	0.18255084787891726
3766.281	0.6007100250848482	0.1559141248307862	0.5704630026827702	0.19922233239595255	0.19889641351075463
3766.319	0.6073956306143815	0.16023032827068726	0.5782799621580285	0.1989031656129879	0.19453306869426265
3766.371	0.6140132817102506	0.1645844916912686	0.5860321046511304	0.19818923886972667	0.19715966509849867
3766.403	0.6205345837835887	0.16894698737231603	0.5937248142031093	0.19649544991179857	0.19025198608882163
3766.443	0.6270467965105451	0.17338944677769963	0.6011674120755514	0.19765293058632294	0.18687154986935386
3766.489	0.6335483752266996	0.1778814014562936	0.6084825973163063	0.1977702273093074	0.18393211696334957
3766.522	0.6400210137023854	0.18241024198098632	0.6160206407022679	0.19758128314826773	0.19224878832511283
3766.562	0.6464624895713958	0.18699265770285506	0.6240888488488331	0.197371318675934	0.20136251657504325
3766.601	0.6528457194010716	0.19162496935792261	0.6321322112342572	0.1968800806770838	0.2007068402819591
3766.65	0.6591541946247752	0.19630049869663008	0.6397309832579854	0.19680715472350283	0.1812727366000313
3766.677	0.6654724322728507	0.20103871923651373	0.6470417892402103	0.19790252456811222	0.1806718339473331
3766.733	0.6717615338623999	0.20582146259699424	0.6543346016288099	0.19768687455860726	0.18574367779642414
3766.765	0.6780189485222956	0.21064975037051684	0.6617013825757218	0.1978562896619636	0.18694033423141143
3766.801	0.6842386223541622	0.2155185331699539	0.6692098054133073	0.19722463795009862	0.1900083596460415
3766.837	0.6904510147132191	0.22044989052446723	0.6772640928609358	0.19827233630709318	0.20371395904635803
3766.886	0.6965934974501391	0.22542681282648097	0.6852926363460353	0.19791285220190438	0.19979171001688434
3766.926	0.702669757279892	0.23044664888467786	0.6928738208830845	0.19749552010085897	0.18578057379993207
3766.992	0.7087246234465057	0.23550950831616466	0.7002849573891193	0.19763298718988828	0.18349197360557648
3767.019	0.7147485558294909	0.24061602174975602	0.7077080044267543	0.19749282695487297	0.18948293206804906
3767.044	0.7207343353293557	0.245762665243621	0.7152560884843717	0.19702485425008812	0.19039211673548556
3767.081	0.7266830063818785	0.25094883152432235	0.7232790448585036	0.19776021470257946	0.20240156169677245
3767.149	0.7325759175620609	0.25619198730483284	0.731419115928415	0.1966710296489115	0.20143244727072074
3767.183	0.738407006725675	0.26148181714148017	0.7389458146608359	0.197060268647885	0.18400754712339693
3767.221	0.7442221825314148	0.2668195162573629	0.7463157373333874	0.1973174161320025	0.18093333892953242
3767.246	0.7500021871838208	0.27219956879491936	0.7536890205408096	0.19753899930321273	0.18699491282071418
3767.282	0.7557429310048306	0.2776208244766495	0.7611238923009331	0.19725609034645597	0.18693379796852655
3767.32	0.7614606758798407	0.2830833440131857	0.7687850487564563	0.19757205528013916	0.20435249568830322
3767.361	0.7671251321560536	0.28860359505065686	0.7767543553065441	0.19732496408460315	0.2001133723076876
3767.41	0.7727254318118174	0.2941581146377331	0.7843966234628298	0.19674768702926665	0.1811742196994215
3767.438	0.7782869184537812	0.29975554111639446	0.7917146533267784	0.19692422405976714	0.18434907897749891
3767.483	0.7838149853829828	0.30539209272579276	0.7990468483040845	0.19769877025868882	0.1821517693805196
3767.519	0.789303867441938	0.31106752103683	0.8064690725158357	0.19723533189294717	0.18601136454782705
3767.565	0.7947488833690809	0.3167789485761172	0.8140159310478958	0.1973935904230974	0.19199791869611585
3767.6	0.8001455976589884	0.3225145243641972	0.821929304560871	0.19597093640543356	0.20389645567815326
3767.643	0.805467357773811	0.3282868196297307	0.8300433813084341	0.19634819540809426	0.19665140158066724
3767.672	0.8107535126896684	0.33413420189348864	0.8374696302502106	0.19762824703727283	0.1865516438582921
3767.719	0.8160148388835472	0.3400235196410679	0.8447962337854416	0.19770613389640057	0.18367405895517175
3767.766	0.8212377720173397	0.34595131313724276	0.852081680047719	0.19797314020710993	0.18400885596852104
3767.801	0.826422999558964	0.3519164941153149	0.8594017603058933	0.19727483314904223	0.18245861218677017
3767.874	0.8315683435524467	0.3579209004849154	0.8668021462683525	0.19788537729551892	0.18984796494831235
3767.908	0.8366781575345954	0.3639672776589097	0.874445817118679	0.19867126746770392	0.20076443545261805
3767.936	0.8417326693480963	0.37006156596419626	0.882453888939041	0.19700272404150032	0.1948869579965986
3767.98	0.8467087017141831	0.3761730610384513	0.8900401240373506	0.197855877370062	0.1853961979580571
3768.011	0.8516606359418151	0.38233136964979075	0.8975073720092899	0.1981032328493183	0.1884643429978324
3768.07	0.8565685978568504	0.38853064024094885	0.9049606301280698	0.19796411682056225	0.18796002828536168
3768.1	0.8614369620136606	0.39476374571268685	0.9125592289228142	0.19665957973199294	0.19500474872446005
3768.14	0.8662263240340004	0.40100324167327944	0.9205521952887438	0.19682910897491265	0.19933190991906513
3768.182	0.870969105259907	0.40730474224932955	0.9280584869760681	0.19797401273007936	0.18699371161718198
3768.226	0.8756826902810493	0.41365395225536894	0.9353620690873176	0.19784636034480052	0.18384070435268202
3768.267	0.8803500179049699	0.42003516435121946	0.942638280413022	0.1973250630803479	0.18042320202513318
3768.283	0.8849732294108853	0.426448486562014	0.9499181567224095	0.1975243760081122	0.18018998135758
3768.33	0.8895569269140389	0.43289911257433206	0.957249889210468	0.19810819937754937	0.1862538476286023
3768.363	0.8940901603237743	0.439383684660109	0.9646777143429683	0.19796702938182859	0.1887048801270673
3768.418	0.8985798706167007	0.4459016329315141	0.9722138711817551	0.1975564826979539	0.1970794606197939
3768.447	0.9029920344388499	0.45242669324150697	0.9799778003660009	0.1967346601689614	0.19492363724369616
3768.481	0.9073555641466596	0.45899413199642536	0.9875385169352299	0.19789348407364776	0.18616197068618368
3768.53	0.911683903521005	0.4656101823543337	0.9949409047149804	0.1973724492271092	0.185061688358632
3768.574	0.9159651854412865	0.47226057858005865	1.002320468437339	0.1979875789981307	0.18705644945507116
3768.617	0.9202021037286213	0.478947289592376	1.0097390179210137	0.19763809559089718	0.18148471921777118
3768.664	0.9243954586221903	0.4856646219472456	1.0171590553025647	0.19779456778667975	0.19159431152973086
3768.679	0.9285337206435134	0.49241598771851824	1.0247510537031943	0.19753400836049356	0.18857498458609234
3768.728	0.9326126085406471	0.4991896559222545	1.0323474484174968	0.1970202653708284	0.18939743939924106
3768.76	0.9366436468313875	0.5059945219691017	1.0398296556344118	0.19727237418258523	0.18752748514508732
3768.806	0.9406255305381461	0.5128352402144774	1.047360486650953	0.19791134533626475	0.1884204172191721
3768.844	0.9445569451797906	0.5197061016831772	1.0549012628417138	0.19777889571269336	0.1904604611815499
3768.894	0.9484375412404787	0.5266083629917664	1.0624711872088222	0.19745559500349713	0.18933304685340682
3768.922	0.9522590944057209	0.5335368294615637	1.0700068315015352	0.1976139931866702	0.18373602173319167
3768.961	0.9560359086903722	0.5404998921998112	1.0774855757568487	0.19839232714272118	0.1918036576517109
3769.001	0.9597541958172016	0.5474866614390582	1.0849426789991137	0.1979980398808534	0.18434539017872953
3769.042	0.9634186976375758	0.5545012998060663	1.0923783662303368	0.1978049709962337	0.1880685468245304
3769.086	0.9670424426309256	0.561545243912313	1.0998625243715143	0.19845096302616722	0.1908925595516856
3769.137	0.9706092034431026	0.5686146771375412	1.1073874231727243	0.19749532087106614	0.18751342288245945
3769.185	0.9741255350897835	0.5757177115104604	1.114895312043983	0.198663808492543	0.18902313595502995
3769.214	0.9775868253683532	0.5828451996986015	1.1224248149276488	0.19903986035066673	0.18949232940635688
3769.255	0.9809917646248985	0.5899954836463345	1.129962168742985	0.19936219198441296	0.1902039238558973
3769.286	0.9843407281326516	0.5971688590830269	1.1374992855189205	0.19760602806829505	0.1859707019217132
3769.336	0.987637378729362	0.6043673991900026	1.1450379642478519	0.19998188737163114	0.1891330729436221
3769.368	0.990879754069771	0.6115942073623453	1.152583196542725	0.1977164045284505	0.18571850300171805
3769.416	0.9940686917103132	0.6188515947038362	1.1600344151641777	0.19790537716160908	0.18525516663129446
3769.442	0.9972022189158803	0.6261321725986091	1.1674446666294485	0.20032302780103234	0.1892458126931549
3769.484	1.0002867264181952	0.6334354973047474	1.1748912703337393	0.19745890806070415	0.18339089576777565
3769.523	1.0033118659470643	0.640758860254598	1.1823294946939589	0.19765653910381634	0.18608478188036165
3769.552	1.0062861206888427	0.6481030210543476	1.1898158512963706	0.1977877801446703	0.18346214050969645
3769.594	1.009198862317851	0.655468072585258	1.1972286820367621	0.1983169925643524	0.18540139770936276
3769.641	1.0120634015205172	0.6628538045433696	1.2046840118527617	0.19823760272371185	0.1882813345802575
3769.689	1.0148765466593987	0.6702706842454625	1.212189288202902	0.1981512788883171	0.1888200067563477
3769.729	1.0176297757091626	0.6777068572658722	1.2196850693864194	0.19877893972051516	0.189267232307319
3769.77	1.0203229100491435	0.6851602945522294	1.227190794324409	0.1976290295799117	0.18756442530305817
3769.801	1.0229633409802095	0.6926389180644966	1.2346441425676868	0.19814686005594656	0.1839386680261676
3769.837	1.0255500620861127	0.7001388535987763	1.242086335063708	0.19832653137065856	0.1845038087507301
3769.891	1.0280806926309396	0.7076525815258417	1.249539975851909	0.1980632731990862	0.19181138513904036
3769.922	1.0305539477887264	0.7151885127056031	1.2570043253114342	0.19842100878019656	0.18766091131092544
3769.965	1.0329745343299126	0.7227421460727355	1.2644809492730278	0.1978553851186791	0.18448023176233788
3770.004	1.0353381846383585	0.7303120634720358	1.2719854821299132	0.19986978462796084	0.18898886553448066
3770.047	1.0376424918125953	0.737902917106505	1.2794672347066236	0.19798544255222972	0.18512661870774602
3770.087	1.0398906289150396	0.7455060697651462	1.28697486691238	0.19825637848162164	0.19047753827596808
3770.137	1.0420833290405334	0.7531327645251472	1.2945054828581026	0.19829482363792988	0.1892259611553831
3770.161	1.0442175677089445	0.7607776498655319	1.3019901025534208	0.19830347423184413	0.18826045257495802
3770.193	1.046292813951688	0.7684390124585528	1.309447308100195	0.19786055293332375	0.18536172856910896
3770.242	1.0483129066258032	0.776117790728339	1.3169040742185045	0.1980464425176668	0.18377193036361777
3770.282	1.0502807826684377	0.7838113053420687	1.324381254572228	0.19811213656289808	0.18393439281314014
3770.322	1.0521831787953717	0.7915160191523385	1.3318481126250714	0.19861085076474824	0.186888522250213
3770.362	1.0540362795149476	0.7992392725438304	1.3393547702995543	0.19874151807002155	0.18896716240657338
3770.409	1.0558263532785566	0.8069724159974877	1.3468580781298924	0.19849765116716653	0.1871256707552247
3770.453	1.0575556594277475	0.8147129487200069	1.3543516519797274	0.19815741351595562	0.18725625125182058
3770.485	1.0592299210314688	0.8224665145685646	1.3618676108858798	0.19840752804667103	0.18869901477553203
3770.53	1.0608428952591946	0.8302391724604816	1.3693636725404799	0.19779813503091415	0.18596391800988357
3770.561	1.0624033482551147	0.8380327522397728	1.3768383442478602	0.2000086143325008	0.19069891817719029
3770.604	1.0639053951663249	0.8458342162943527	1.384315424983537	0.19819462768148688	0.18346244358115982
3770.651	1.0653465724574978	0.8536452373880739	1.3917881533775	0.19843597679875127	0.18686447369161815
3770.7	1.0667279227625857	0.8614631403778608	1.39927360709594	0.19832888348117336	0.19174120256130858
3770.733	1.0680570791889767	0.8692998171744557	1.406772970575003	0.1998459773988768	0.19068091623415764
3770.783	1.0693248729805833	0.8771438626322852	1.4142675558342341	0.19859144244827814	0.18795542019504574
3770.827	1.0705306825939955	0.8849893856221593	1.4217576711020312	0.19825957362398322	0.18594178311358012
3770.876	1.0716774601339099	0.8928501608946138	1.4292335897918136	0.19847784862759388	0.18965950499950512
3770.891	1.072771712693067	0.9007167644400917	1.4367563947186213	0.19919728575932985	0.1873428939733872
3770.925	1.0737985983003333	0.9085946353059678	1.4442332059792093	0.20046109532469955	0.19121848330140992
3770.967	1.0747739109166532	0.9164873352301023	1.4517190703170002	0.19884806097551325	0.18943078962319557
3771.0	1.0756866784738837	0.9243847540222128	1.4591859459447563	0.19863132427187866	0.18723539723577634
3771.042	1.076541633928086	0.932288290624041	1.4666750665446753	0.19872027702294953	0.18782563830688592
3771.09	1.0773383329607635	0.9401993985563671	1.4741625492101802	0.19800534499176237	0.18535433780327829
3771.151	1.0780754831462793	0.9481115239972118	1.481666992435135	0.19815128367496665	0.1904021325459646
3771.192	1.0787497781003212	0.9560317170829862	1.4891519333969148	0.19892525009389217	0.18525858165411963
3771.21	1.079366367903558	0.9639542811255158	1.4965871416095018	0.19892538495472187	0.18570796614378732
3771.247	1.0799285990575413	0.9718841464399464	1.5040662545029055	0.19808618656600416	0.1845383128241442
3771.282	1.080428335891142	0.9798117450781132	1.5115500669770572	0.1984132491319922	0.1870747681425817
3771.325	1.08086420361509	0.9877615056414506	1.5189438736392917	0.19898074978803684	0.1819954389132747
3771.362	1.0812523117303037	0.9957039287166838	1.5264129804998943	0.1991634266099133	0.18955867803879858
3771.403	1.081574668801801	1.0036495368620868	1.5339032059544946	0.19836272801699714	0.1829695381223049
3771.438	1.0818367231995816	1.0115987555507855	1.5413929013726964	0.1983570323775445	0.1880191107479969
3771.48	1.0820413734850864	1.019550419473601	1.5489073046924253	0.19867380194755382	0.1848585640460204
3771.522	1.0821886469764852	1.0274993536650598	1.5564249405590966	0.198500758455866	0.1912299718468604
3771.571	1.0822666996057733	1.0354756916784258	1.5638133186155974	0.19852099755606237	0.18489670856088025
3771.627	1.082293871646473	1.0434298126765378	1.5712017615738958	0.19820619422799846	0.18698877876430986
3771.657	1.0822672988636644	1.0513782500205835	1.5786884290593681	0.19879288486074448	0.1885925072589423
3771.706	1.08217500030385	1.0593243956843805	1.5862146559012682	0.19904267027469383	0.18840295733985338
3771.752	1.0820223812706344	1.0672836449664036	1.5936971517073053	0.20046388881641863	0.18089985791954452
3771.779	1.081806398490133	1.0752946638801133	1.6010442407443755	0.2001538107162408	0.18446426209110497
3771.811	1.0815363216699376	1.0832316192438065	1.608367245500846	0.1975053928834344	0.18429209333739568
3771.844	1.0812151458905659	1.0911628899675154	1.6159219313329118	0.19847461097026828	0.19061480736710884
3771.907	1.0808311685363077	1.0991023768079156	1.6235071296351606	0.19934792943951468	0.19230751496478599
3771.932	1.080383172010916	1.1070358429851317	1.6310989549046844	0.19867157068083	0.1907268006939879
3771.968	1.0798749362988205	1.1149889015980556	1.6386263305020536	0.19942899768053224	0.18865431508390604
3772.002	1.079306323291004	1.1229397112787927	1.6461258496799205	0.1985866135943658	0.18524010185185147
3772.049	1.078682295826047	1.1308481783559736	1.653613753477191	0.198022818594691	0.18837559087245162
3772.072	1.0780098424204516	1.1387380783072798	1.6612680341794193	0.19760431326167538	0.1935956306530281
3772.125	1.0772628885734299	1.1466306169932734	1.6689188020725492	0.19808535969668095	0.1919638408170306
3772.162	1.076455254024648	1.1545269609673567	1.6765154805296287	0.20011496902833129	0.1888600118502947
3772.201	1.075590084587774	1.1624773446715317	1.6841096860012577	0.1999094197335586	0.19039239599933064
3772.243	1.0746520357810336	1.170393427498515	1.6915039771136997	0.1977489613882877	0.18574087555000401
3772.287	1.073678795994803	1.1782540193518256	1.699041723042545	0.1980108661832294	0.19099256486416324
3772.319	1.07263485561973	1.1861150861394305	1.706647082452542	0.19855331910078172	0.1886122219717554
3772.36	1.0715331648249564	1.1939747782280243	1.7142162727848642	0.19843515998600897	0.18918681385848155
3772.401	1.0703566187746192	1.2018829394408297	1.7216245929590557	0.19951686767346954	0.1864466660690303
3772.459	1.0691264797097177	1.209782597182128	1.7290289657547093	0.19911175589868374	0.18520842435314822
3772.502	1.0678459089498764	1.2176317125885252	1.7363693222671444	0.197702917905981	0.18945647552860048
3772.557	1.0665212784776825	1.2254395157375835	1.7440454209487584	0.19813807531807243	0.19234586725558306
3772.594	1.0651261758626822	1.2332486145213952	1.751694885682811	0.19782425382528052	0.19214239008525316
3772.626	1.0636607906159905	1.2410798101461589	1.759255270488811	0.20021464162870242	0.18499103087996152
3772.655	1.062136160950771	1.2489383303504633	1.7667460672839033	0.19909190558876036	0.1876091480992913
3772.708	1.0605514894833674	1.2567504372773441	1.774144221054772	0.1985505889875291	0.18426116769938536
3772.73	1.058920468963213	1.2645215528067675	1.7814931634595463	0.19755710280555785	0.18812620054033274
3772.758	1.0572433226661209	1.2722544071377697	1.7891160419387702	0.19789376521936283	0.19067441452753708
3772.802	1.0554955395701946	1.2799888892451687	1.7966909567220528	0.19879850635070953	0.18328148481372228
3772.841	1.0536742271486952	1.2878110715088213	1.804230486335237	0.2011555166058701	0.18965113396600017
3772.892	1.0517884008257192	1.295611344846574	1.811775754876411	0.2003343307172297	0.18754908412893148
3772.938	1.0498521945654786	1.3033361480301768	1.8191232227310066	0.1976396788346133	0.1844986805463665
3772.971	1.0478919220191543	1.3110076776547048	1.8267322587783585	0.197898568371708	0.1927400715336678
3773.011	1.045858376785005	1.3186629183764	1.8343642147534647	0.19802141387231695	0.19270154326174993
3773.042	1.0437616842308608	1.326323997983833	1.841939439120935	0.1994305057391963	0.18751028557142616
3773.1	1.0415867559483507	1.3340506712064917	1.849428700256916	0.20107803728834978	0.18825336019602062
3773.131	1.0393536713743026	1.3417408503730925	1.856893326527439	0.19999313971244004	0.1839245029601209
3773.177	1.037088963087045	1.3493537534587239	1.864291877297996	0.19932746350313635	0.19406129428873037
3773.212	1.034777706466486	1.356925801817256	1.87199232380065	0.19918051318150978	0.194370319325812
3773.24	1.0324004872605794	1.364486567952628	1.8796753349196045	0.19829720823576638	0.19241666124232884
3773.281	1.0299551263551927	1.3720485322212506	1.8872566395696746	0.20053620964110783	0.18780411951533502
3773.332	1.0274383434778358	1.3796573438465416	1.8947876476561532	0.19959453622406892	0.18705399035565023
3773.382	1.024869744618873	1.387202457143999	1.9022203223472482	0.1987448167134296	0.18401209216442946
3773.446	1.0222743204748899	1.3946872409047635	1.9097538379641155	0.1974824891739926	0.1917219702074815
3773.446	1.0196169240964066	1.4021467633573086	1.9174283961827963	0.19747952849140213	0.1910908460813688
3773.481	1.0168985848918184	1.409592949764181	1.925066727246111	0.1976614031947106	0.18847075271860883
3773.522	1.0141142119083817	1.41704555886257	1.9326306270763374	0.19965631004827925	0.1916387544177858
3773.561	1.0112616849189306	1.4245150204084016	1.9402385789453558	0.19959823986590794	0.1897194885129383
3773.601	1.0083626237474181	1.4319118678101774	1.947754994174076	0.19803570046581379	0.18686915928521708
3773.642	1.0054288051523912	1.4392650122716923	1.9553847798019148	0.19769694880237118	0.19041297294299694
3773.682	1.0024321170068207	1.4465857641793605	1.9629731873970802	0.19785155185132244	0.18376755860663377
3773.721	0.9993810706107626	1.453899524496416	1.9705666449642028	0.1975381589890971	0.19167919631187003
3773.761	0.9962702798422277	1.4611940426187466	1.9781307952744123	0.19839069713318633	0.18680957951041136
3773.817	0.9930989195076624	1.4684924285574597	1.9858164357752595	0.19951758967279917	0.19305421989768676
3773.846	0.9898748095785048	1.4757404452764236	1.9934722339316011	0.19725678408335584	0.19113043486248812
3773.883	0.986601347926023	1.4829472207289194	2.0010382914171982	0.1976605813584882	0.18749356847383647
3773.922	0.9832758739102093	1.4901310637198855	2.008611699651475	0.19766173130507597	0.18837250384964968
3773.966	0.9798934538898632	1.4972949158966542	2.016225830093508	0.19742840230223202	0.1909812574717705
3774.002	0.9764574712016748	1.5044291104090486	2.02383784199057	0.19758096693639082	0.1911177693621984
3774.038	0.9729660637311826	1.5115595100052013	2.031558148043976	0.19930197286745496	0.19709708165773013
3774.093	0.9694297721836432	1.5186439320865324	2.0392793326052274	0.1962664488508977	0.18795032837703454
3774.138	0.9658473649569721	1.5256562860153131	2.0469484147711943	0.1967249805872567	0.191351343438893
3774.162	0.9621984583029299	1.5326539974075408	2.054561323409322	0.19740198781251792	0.18412429333403835
3774.205	0.958490524639731	1.5396417736343	2.061936332586227	0.1978564896916457	0.18185855984589697
3774.261	0.9547395873912428	1.546611795493331	2.0694165491512972	0.1977262587730442	0.1928577535267686
3774.312	0.9509344320453135	1.5535745501913798	2.0773469737953323	0.1986877108666981	0.20055775251485497
3774.35	0.9470687764266731	1.5604794006618283	2.085292150861201	0.19726550378951913	0.1955327035287456
3774.397	0.9431724981997162	1.567306364797845	2.0930769727157204	0.19661317778058646	0.1892923754793642
3774.423	0.9391973523361562	1.5741353838096666	2.100512230681194	0.1973712107342082	0.18410288626666743
3774.468	0.9351730301589123	1.5809470640545409	2.107835515297155	0.19787370507389734	0.18386873807041795
3774.511	0.9311052755073157	1.5877355006571008	2.115277089180605	0.19783759898066783	0.18781422366253583
3774.546	0.9269888798731043	1.594510995815095	2.123162446230504	0.19829570482626818	0.20183031179501446
3774.588	0.9228070542100489	1.601237110174813	2.1311927337529024	0.19733221618216965	0.19868406999194813
3774.618	0.9185779565884689	1.6078960038613395	2.1389299403292426	0.1972951025822502	0.17959157111528826
3774.666	0.9143000760456116	1.6145429954440924	2.1463029720520725	0.1976816653124852	0.18905191202602517
3774.691	0.9099733541255712	1.6211625688597808	2.153718198559432	0.19756823000082832	0.18415361840566033
3774.732	0.9056012066626897	1.6277522445679191	2.1612412526512275	0.19733142163601894	0.19065436573697564
3774.774	0.9011784288353331	1.63432740646926	2.1691605158724805	0.19793359847879693	0.205915328971078
3774.802	0.896695849465801	1.640846317041133	2.1772740119709573	0.19764257545534514	0.2013382416989944
3774.839	0.8921680683757458	1.647307135184195	2.185065043982848	0.197669988307301	0.18883491325224802
3774.889	0.8875843469871332	1.6537436194241206	2.1924044110953145	0.19763143723752302	0.18011919502111604
3774.924	0.8829563605331385	1.6601585460365078	2.1997339535610005	0.19763971231314945	0.18136905467012354
3774.978	0.8782849340708379	1.6665384950873805	2.2071468441767768	0.1973750352122421	0.18559999946086506
3775.024	0.8735735652822503	1.6728884468483476	2.21476825601249	0.19887879626630012	0.20576794099201748
3775.064	0.8688074770227687	1.6791956372687065	2.2229768356496216	0.19790161209510046	0.20572522066748364
3775.104	0.863995394027957	1.6854449743267828	2.23109241032532	0.19672515879202812	0.19693331865615757
3775.13	0.8591195014288932	1.6916489697431423	2.2385082661911015	0.19734923847963287	0.18486902205532907
3775.181	0.8542035250467627	1.6978381580086856	2.2458699681920087	0.19743451697878697	0.1834196929372344
3775.213	0.8492425134140744	1.7039926654056805	2.2532645505864486	0.19738971539409234	0.18303525407431193
3775.247	0.8442380087686826	1.7101097642664989	2.2607276338095557	0.1972661415638923	0.1875773036432648
3775.278	0.8391898701639522	1.7161891879433067	2.2682996085280975	0.19753446860697055	0.1919325166289692
3775.339	0.8340843262587959	1.7222513541377913	2.2763188500513127	0.19845300082621037	0.20078409357194826
3775.378	0.828941530448664	1.7282380290119363	2.2842432287838954	0.19696075700739213	0.18939228657782342
3775.417	0.8237422724552731	1.7341794632047565	2.291621436868856	0.19747239386844534	0.18084174513429596
3775.455	0.8185059443391076	1.7400967299932872	2.2989645264672878	0.19737083277760442	0.1812509980140768
3775.491	0.813225900006679	1.7459773131933902	2.306326627905729	0.19716937406417573	0.18648943170394988
3775.521	0.8079055730139346	1.7518188173950853	2.313778873073965	0.19751389332950506	0.18749418370356952
3775.572	0.8025463171335048	1.7576308452975697	2.3215076118022995	0.19688806952103513	0.20614386811429208
3775.614	0.7971310322833507	1.7633893929626625	2.329571388197266	0.19747691466138056	0.19828268027660603
3775.636	0.7916705712328005	1.7690773485264586	2.3372113834770585	0.19737778673033957	0.17984842877723053
3775.712	0.7861703952865305	1.7747473729495638	2.344580435698336	0.19734477341478365	0.18402166213753637
3775.761	0.7806292886561903	1.780377923572269	2.351964871345934	0.197349398946237	0.181639972930407
3775.774	0.7750460365437892	1.7859679626368505	2.3593764312767167	0.1978893161736316	0.18437105572023918
3775.814	0.7694240236381455	1.7915165843317846	2.3668646619648444	0.19731266352243215	0.1876384808096463
3775.848	0.7637583151163067	1.7970243801336037	2.374416378291207	0.19794114510400518	0.1896608189109066
3775.887	0.7580447556038026	1.8025045621087064	2.382446662324444	0.1976425767104626	0.19940969726580643
3775.922	0.7522926263266423	1.8078993321839594	2.3901342378187334	0.1967864719758443	0.1836410393371722
3775.96	0.7464928948199007	1.813266285896726	2.3975057615348514	0.19739371397762	0.1832348300009904
3776.0	0.7406529481026247	1.8185972525270397	2.404802866051686	0.19729091046984013	0.1839601970199534
3776.075	0.7347741656687727	1.8238931084509913	2.412117791820791	0.19806736738765535	0.18535517129964615
3776.099	0.7288565732252945	1.8291489396658676	2.419511996799876	0.19794791734260492	0.18891766898710183
3776.138	0.7229068922854915	1.8343575862419454	2.427128253049086	0.19674725034510038	0.1921318964316962
3776.167	0.7169149144675689	1.8395156461358788	2.4351166965035076	0.1978163469663891	0.1996051927632498
3776.2	0.710888644940073	1.8446010874826404	2.442770164220548	0.197642891290007	0.17900337569115374
3776.245	0.704817096862604	1.8496624915535906	2.450139255166069	0.19736609258254512	0.18387025617114539
3776.278	0.6987089730520597	1.8546784099233027	2.457519349928547	0.19711217318003432	0.1820119105712394
3776.322	0.6925608414482114	1.8596525322375002	2.4648955263627594	0.19795691323534614	0.18522952803206538
3776.362	0.6863758543592751	1.864583774518747	2.4723057293021067	0.19803559939653936	0.1871284833395497
3776.401	0.6801520739602086	1.8694703131541446	2.479751860759314	0.1979970932660986	0.1879613708068335
3776.442	0.6738922831119415	1.8743144833641798	2.4873134518734847	0.197769085483635	0.19490100882841677
3776.481	0.667608079728444	1.8790954807444105	2.4951211222313896	0.1994616945524965	0.19232832556563795
3776.524	0.6612726635357031	1.8838237933207598	2.5025172781032348	0.19800287397433258	0.18391548184994597
3776.561	0.6549060745356351	1.8885121715035054	2.509854447901181	0.19744245098316518	0.18052330483450535
3776.597	0.6485028628898563	1.893156898194615	2.517169516895346	0.1974173917817616	0.17768335081426714
3776.637	0.6420665733958731	1.897758995731074	2.5245260960674325	0.19811903287476876	0.18422243326947044
3776.681	0.6355963160146764	1.902315301271956	2.5319525340699776	0.19811082070384342	0.1886013369377231
3776.725	0.6290898822736866	1.906822429122727	2.5393991818503	0.1982942632151603	0.1859532419779364
3776.761	0.6225501603721493	1.9112802380482612	2.5468658374067883	0.19820285287186692	0.1879322379657363
3776.803	0.6159765830308801	1.9156952820795308	2.554498163104501	0.1975431154221562	0.18937590320354333
3776.859	0.609369393982073	1.9200426093257321	2.5619623108756335	0.1980782100674474	0.18557677104817588
3776.9	0.6027312761363084	1.9243435200040047	2.5693306297081553	0.19737009261358845	0.1798243349988505
3776.932	0.5960595119924407	1.9285972309541006	2.5766141109840923	0.19757158116648527	0.18230749069446603
3776.961	0.589354862524163	1.9327959047392156	2.5838876887306994	0.19734260724524189	0.18049361555534943
3777.002	0.5826219748911229	1.936962071123427	2.5912086224851465	0.19760256248334893	0.1790958329029809
3777.053	0.5758568931500846	1.9410799116593227	2.5986223256898517	0.19809101261133194	0.18898396659441083
3777.094	0.5690612165640367	1.9451443441305736	2.6060488353788487	0.1977512469163744	0.18337582761409507
3777.12	0.5622296754856142	1.94916708027086	2.6135665841065663	0.1980535039382858	0.1888578314368858
3777.162	0.5553770542124893	1.9531214601231321	2.621018614338293	0.1979476668718556	0.18792926002731467
3777.215	0.5484953563027885	1.957025990544098	2.6284615694705495	0.19815246180577623	0.18490952492819449
3777.254	0.5415824846674255	1.9608780813895081	2.6358131912626606	0.1976372500544781	0.18390850353685156
3777.279	0.5346416176680393	1.964683171289243	2.6431503034326447	0.19775957262020202	0.1821114792810525
3777.316	0.5276711859053207	1.968440309999904	2.6504836293379306	0.1979069535412446	0.18100198950185306
3777.372	0.5206723988937094	1.9721496696792022	2.6578423277321788	0.19782414764951262	0.18480868489029686
3777.399	0.5136425456262396	1.9758140955520345	2.6652597856310045	0.197849402584664	0.1898000822225122
3777.441	0.5065838234431663	1.9794215841002547	2.6727927600808976	0.19797334785083742	0.1835586519251736
3777.477	0.49949836522714264	1.9829695508609826	2.680274112165251	0.19813709473047375	0.18342756129030088
3777.518	0.4923878201087515	1.9864678586457747	2.68775784786531	0.19771110155381727	0.18271288284904297
3777.58	0.48524916109884453	1.9899124400078272	2.6952358866355897	0.1980591993959556	0.1880023632872277
3777.617	0.47808653699919185	1.9933038969826575	2.7026834020190127	0.198301512038089	0.18786148574361422
3777.652	0.47089985362712156	1.9966369662119752	2.7100948245804757	0.19824032598954724	0.1868837745061587
3777.692	0.46368257838377414	1.9999276459429927	2.7175639433121797	0.19782554441094988	0.1840102362156708
3777.706	0.456444330490303	2.003156202797262	2.724959189969149	0.19805946249146525	0.19073639472610804
3777.775	0.4491802084328578	2.006335575638472	2.732396649223948	0.1982139286871361	0.19057575623997186
3777.801	0.4418885728322157	2.009462030177626	2.7398803485633616	0.19845785231796625	0.18993635983135249
3777.842	0.43457700009959466	2.0125339636803736	2.7473929650228865	0.19804249221706532	0.18416447420396745
3777.888	0.42723911106751733	2.015551314495604	2.7548694278137833	0.1980306168909592	0.18284732002572374
3777.922	0.4198776489868433	2.0185105833392014	2.7623427008118484	0.19821634802213095	0.18811212150704545
3777.968	0.41249949051230683	2.0214152892593176	2.769808811704979	0.19794815886376782	0.18462748564641743
3778.002	0.4051001452503316	2.0242635402479507	2.7772506879378893	0.19810196932293084	0.18636201627707832
3778.043	0.39767632064233793	2.0270599820922817	2.7847027779905074	0.1984523943432837	0.1856786265185342
3778.108	0.39023188204403503	2.029800671798772	2.7921399244019587	0.19817641860726118	0.18916076700600934
3778.136	0.3827640165230819	2.0324812014161515	2.799537138676568	0.19940270858871864	0.1857387938957116
3778.169	0.37527522542071723	2.035119665406431	2.807021192491341	0.1982607759559529	0.18991708930364098
3778.215	0.3677622518150192	2.0376966997821717	2.8144922353235287	0.19836887043778537	0.18748367217633832
3778.257	0.3602356089064162	2.0402156112249075	2.8219920331534927	0.19786881260172404	0.18623445734493094
3778.308	0.35269099646641827	2.042674370152945	2.8294656093439534	0.19844400276364313	0.1870751074520046
3778.35	0.3451344958098703	2.0450755211364107	2.836881234333706	0.19787285254443143	0.18193120394837803
3778.392	0.33755749933125456	2.0474204640924207	2.8442589787174115	0.1982357870837554	0.18184262390533407
3778.422	0.3299610185530948	2.0497117905441966	2.8515985123427474	0.19868657325439015	0.18335647004737207
3778.457	0.3223470293831233	2.051950958074436	2.8589317971147055	0.19862761341837898	0.18599096375316396
3778.485	0.3147166135953117	2.05413521081594	2.8662806720318743	0.19823890131120264	0.18211423042901276
3778.526	0.3070603444914792	2.0562697651339805	2.873677700247078	0.19844302488007173	0.18618996409380417
3778.557	0.29939642249389303	2.058337672335358	2.881093271527155	0.1983972945482386	0.1887816813656641
3778.602	0.2917154233562391	2.0603544666082096	2.8885491211622076	0.19842727889005832	0.18699567406075404
3778.641	0.28402115269180034	2.0623136919358784	2.8960589853846996	0.19802854773660256	0.18674474927801388
3778.683	0.27630848237397665	2.064210492250166	2.9035365538686646	0.1985197696764879	0.1855367179332313
3778.721	0.26858188992805876	2.0660533244660875	2.9110260383807804	0.20030116356310065	0.1883227621204056
3778.762	0.26083983859703463	2.067835069616662	2.9184555000569823	0.19815613788050127	0.18294044238392773
3778.8	0.253080841099436	2.069561525207305	2.9258811841524475	0.19858174536058312	0.18393945583804447
3778.842	0.24530831442250817	2.071231596943694	2.9333046696722365	0.19892804985365492	0.18472911116822965
3778.882	0.2375315005341232	2.0728387180319547	2.940725093470436	0.20026135269801715	0.1926458123994364
3778.921	0.22974118356113798	2.0743940198849495	2.9481587666696756	0.19832600651546106	0.18317833289888025
3778.962	0.22193890987015127	2.075893558437985	2.9556335729078778	0.1991145580959757	0.1885213810963724
3779.006	0.21412556905804758	2.0773306232130904	2.9631033914697253	0.19856004514188808	0.18564763388552158
3779.039	0.20628060305503948	2.078714184838404	2.970529744923612	0.198896271702859	0.18479469420135305
3779.073	0.19844301795693414	2.0800328273455766	2.977956554725569	0.1986118720306166	0.18558820746993315
3779.129	0.19060345840441179	2.0812991188209438	2.9854412465236053	0.1980792595541786	0.188191924926553
3779.161	0.18274248602948884	2.0825057141218677	2.9929344469096995	0.19875173999432266	0.18680181318868583
3779.204	0.17487649106002665	2.083646519093434	3.000349767644363	0.19845264501640192	0.18445495235033257
3779.227	0.1669725887728276	2.0847400135922536	3.007719095077079	0.20043484970284334	0.18540748398699053
3779.281	0.15905697177784744	2.08577013116346	3.015045131271692	0.1988764510849337	0.18161972110471133
3779.32	0.1511989127391645	2.0867475908156576	3.0223460760023926	0.19785593727110198	0.18465345496267246
3779.365	0.1433677561415791	2.087659690284463	3.029586787087417	0.1992699245809798	0.186838640163593
3779.402	0.13546296436021033	2.088518538042566	3.037021721318585	0.1995688789550802	0.18895720127947388
3779.446	0.12754522327221518	2.089320702131673	3.044444131480142	0.20031154655111352	0.18395461644982986
3779.483	0.11957489973683937	2.0900677457583137	3.0518744731433407	0.19967568908043912	0.18526470876815965
3779.522	0.11165545908353874	2.0907486366667576	3.0592817392414005	0.1988542509748789	0.18655487001733773
3779.563	0.10380683004097381	2.0913791983676178	3.0665418116372196	0.19526715631165714	0.17647539318212274
3779.602	0.09589436552604069	2.091947623086811	3.073939270538283	0.19883285959246402	0.18828796987453872
3779.642	0.08802460812222088	2.092454977439567	3.081092384696265	0.19966896438287948	0.1816378930652753
3779.686	0.08001607126255884	2.0929167260918207	3.088549547630452	0.2006872584016649	0.1866430234741777
3779.729	0.07206682619362073	2.093304591134483	3.095857545086917	0.19811774106064775	0.1811131685020284
3779.76	0.06429048515891164	2.093637827868065	3.102720071306296	0.19350927981794963	0.16899775525328933
3779.809	0.05642085030488361	2.0939148512773196	3.109883547109733	0.1983154832322625	0.1851401994949541
3779.839	0.04850063508032629	2.094134746695988	3.117297573687231	0.19977592382413584	0.18928723073601336
3779.88	0.040514102505719476	2.094300945510499	3.1247530239117407	0.19969778094393964	0.18626168757157355
3779.931	0.03254261568078348	2.0943994706446705	3.132138565036665	0.19776976198557025	0.1809220545006166
3779.977	0.024641305875931052	2.0944528170659815	3.1394851435713855	0.1952519800524446	0.17986418053449382
3780.028	0.01675624905308186	2.094442455311136	-3.1362832328715196	0.1989121583967321	0.18579176536539108
3780.039	0.008819196699590692	2.0943679079940707	-3.128797425107223	0.19883394744345018	0.18559039562834925
3780.079	0.000838157037197737	2.094235442818849	-3.121308627022325	0.19921422357137017	0.19120090212635457
3780.141	-0.007138415577096088	2.094041483562511	-3.113872612805883	0.1999989949725938	0.1819010580518933
3780.174	-0.01508613711936592	2.093793654948264	-3.1065253652303175	0.19775702858391214	0.18413600121524631
3780.202	-0.022986423111788612	2.093488144068693	-3.0991550353467656	0.19836856597238442	0.19149205959849613
3780.238	-0.03093400693745063	2.093119546334059	-3.0916405074840307	0.19878638681176067	0.18355205229764943
3780.272	-0.03893457621323804	2.0926956289773497	-3.084219702436221	0.2010829372543178	0.186811462987678
3780.326	-0.046946701346542274	2.0922016505233088	-3.0767886153945376	0.19938971167015607	0.18327265135085247
3780.361	-0.05483878524852323	2.091656143949915	-3.069509845560467	0.19791754096264697	0.18423654373793194
3780.401	-0.06275200585766211	2.091061004785867	-3.0619603663176562	0.19810916007555163	0.18668975851976174
3780.461	-0.07066931772914983	2.09040062109461	-3.0544316215216876	0.20055937036193905	0.19117026839918935
3780.488	-0.07859960223802862	2.0896763573316623	-3.0469929672631864	0.20020498071341586	0.18313099371613697
3780.527	-0.08655823211249969	2.0888947225608336	-3.039614020620228	0.19990716889046442	0.18565069950228955
3780.559	-0.09448190174970501	2.088052910670203	-3.032291721149149	0.19838713799936042	0.18567864900812667
3780.6	-0.10236965317310485	2.0871691815524986	-3.024723882711963	0.19828218552657995	0.18944250870379892
3780.643	-0.1102507811184325	2.086219504507215	-3.017118426855185	0.2004039447689175	0.19501665761909706
3780.682	-0.11813514818742266	2.0852056880737755	-3.0095505416147117	0.20024413491434936	0.19205260381224581
3780.742	-0.12605038235678565	2.0841239103333393	-3.002099406779013	0.19917812724262804	0.18651839091482214
3780.764	-0.13394809430879315	2.08298481951567	-2.9946866670737906	0.19939880361291032	0.18373050170709523
3780.806	-0.14180187973892494	2.081796349737186	-2.9872797213737345	0.19800391403190812	0.18563248788340542
3780.845	-0.14963047668770327	2.0805583074935567	-2.979669517010488	0.19824490904039616	0.1888627133686572
3780.884	-0.15746172761330587	2.0792487597834026	-2.97209233341839	0.1980081640856745	0.18672260151532025
3780.923	-0.165341488753731	2.077873207138763	-2.964637703697612	0.20068374809480488	0.1887673169130465
3780.973	-0.17322773282293263	2.0764334588933813	-2.9571696746825595	0.19992901412052497	0.18380311145943187
3781.017	-0.1810479887247774	2.0749407870602554	-2.9498573510879202	0.19843875356070428	0.1873870216622447
3781.048	-0.1888226829964352	2.0734159129432554	-2.94226043529799	0.19782977399511079	0.1908671655830105
3781.085	-0.196586583788679	2.0718201445587363	-2.9346511022310833	0.19823915438441975	0.19072391265214284
3781.128	-0.2043664318846	2.070158882361356	-2.9271171915866203	0.2011566195090458	0.18097683182991536
3781.175	-0.21219475215943784	2.068425230908408	-2.9196973538978317	0.20101140041647478	0.18628180923244783
3781.204	-0.21998249509283885	2.0666363535651695	-2.912313676882494	0.19875747991959072	0.18290308630840682
3781.246	-0.2277089665373831	2.0648049963028665	-2.9050190619114735	0.19788525000658	0.18735815953710927
3781.291	-0.23539676297530954	2.062931898668888	-2.897352320127137	0.19797302322634722	0.19203569883873664
3781.337	-0.24308285471053376	2.060988031169954	-2.889719121954072	0.19780612264250264	0.18887907428611775
3781.359	-0.2508138745997992	2.0589710269731607	-2.8821641446892854	0.19998170190866899	0.18946530427971922
3781.414	-0.25855343111406925	2.0568895357893786	-2.874641709400667	0.20042248428332332	0.18601110000655804
3781.459	-0.2662347526732397	2.054753565570341	-2.8672431382091728	0.19795531041877382	0.18326986556846123
3781.524	-0.2738500181564379	2.0525879946145213	-2.859791476834817	0.19802583953111075	0.18790252977617403
3781.524	-0.28144678650503596	2.0503665864212572	-2.8521089321883117	0.1978237356803622	0.19070483461704166
3781.561	-0.28903973113336434	2.048072986557995	-2.8445462731578277	0.1995531308856772	0.18403981867484584
3781.602	-0.29671395002907225	2.0457026952742194	-2.836999360759232	0.20091026481888605	0.18917158170268908
3781.645	-0.30435525601958074	2.043270209778006	-2.8294653127951452	0.19974160000335123	0.18628122948912249
3781.672	-0.31190332454342584	2.0408054372990354	-2.822061758782804	0.19770011329152898	0.18700423500101823
3781.733	-0.31940855999282103	2.0383013198902735	-2.8144039643174175	0.19731003450622764	0.19001904076726894
3781.765	-0.3268965921974335	2.035732049303102	-2.806751717792432	0.1975867547530683	0.18908455780813455
3781.805	-0.33438348831104725	2.03309701069129	-2.799197930965954	0.1986670084106617	0.18442039586712516
3781.846	-0.3419071075301437	2.030393284485922	-2.7916731436756828	0.20054135916405064	0.18816643431296098
3781.894	-0.34940031170861857	2.0276295464476046	-2.7841572375142856	0.19943912469865724	0.18610397977696883
3781.917	-0.3568157721539194	2.0248371444085778	-2.7766261270672423	0.19773639883462155	0.19239892907050601
3781.961	-0.36420344625438505	2.021989600193786	-2.768974147979119	0.19733043033010914	0.19006626190588571
3781.995	-0.37156975039824264	2.019083411042609	-2.7613180564940425	0.1974061388942547	0.18935271668898712
3782.033	-0.37891090616951295	2.016120134398802	-2.753718317066078	0.19999828298452432	0.19250377853345146
3782.082	-0.3862496483495184	2.013097639433988	-2.746121128039915	0.19857389268187833	0.18641209435920275
3782.127	-0.3935849867814096	2.0100127471389584	-2.7384646833757866	0.1977293899570033	0.1895296243225404
3782.172	-0.4008630119598282	2.0068775782562556	-2.7308796647857925	0.1971814274300018	0.18716003529891298
3782.201	-0.40810576823849276	2.0036981192167285	-2.723285565807766	0.19740858781922763	0.19270119651988768
3782.257	-0.4153185080158919	2.000463453586387	-2.7156631946380556	0.19742479059103163	0.19119985211489443
3782.288	-0.4225146874580882	1.9971735101264811	-2.7080445491606997	0.19745625315474574	0.1935986154853327
3782.327	-0.42968763371574453	1.9938278587407818	-2.7004199466123366	0.19800196054790026	0.1937675105993965
3782.369	-0.43684814405558964	1.9904321057852352	-2.6926943336326894	0.19860662976946997	0.19508222421598648
3782.402	-0.4439658332476618	1.9869923368973212	-2.684949306290771	0.19726054695527642	0.1931642491187371
3782.459	-0.45100155542844517	1.9835054480265735	-2.6772529156253024	0.19643559122326537	0.18888223733544687
3782.503	-0.45804020571643544	1.979933518954444	-2.669830629078154	0.19748259874552382	0.18449224613589904
3782.537	-0.4650728033234341	1.9763194217149165	-2.6624388525770284	0.19741698536384913	0.18573848841116766
3782.583	-0.47208300799627956	1.9726549240584277	-2.6549720550020877	0.19817908719781868	0.194121713347445
3782.629	-0.47909575852441366	1.968932695152328	-2.6471261326738538	0.19795142222538736	0.19433355909838962
3782.665	-0.48604604081527575	1.9651542782825824	-2.639366486017682	0.19668293399440318	0.19161824346901365
3782.682	-0.4929227701945677	1.9613430410850672	-2.631680915022434	0.19690781906297042	0.19157543482768957
3782.729	-0.4997959483141425	1.957455858119516	-2.624202221567537	0.1973727795961676	0.18207002725395657
3782.772	-0.5066565180580751	1.9535215715914134	-2.6168617505940714	0.19747139909590117	0.18334953817688132
3782.811	-0.5134936560922079	1.9495435941991124	-2.6093418166970737	0.19756651106189677	0.19300308530952576
3782.843	-0.520322457480727	1.945503736438673	-2.6014169146651707	0.19790374037440248	0.19813567254070638
3782.882	-0.527095914456369	1.941407663260959	-2.593398955297529	0.19671138268970922	0.19940382266701726
3782.93	-0.5337982918588609	1.9372835528134156	-2.5855361364738925	0.1967213216861409	0.19472649657176722
3782.965	-0.5404777026154228	1.9330867499742062	-2.578031912823223	0.19722329171368982	0.18561573470814782
3783.001	-0.5471469521425546	1.928839392172608	-2.570663086196157	0.19767056529440472	0.18832810967111718
3783.043	-0.5537893445939056	1.9245530797678467	-2.563145063960141	0.19789252039520816	0.19306145885759124
3783.091	-0.5604021075461821	1.9202190383710518	-2.555057891834969	0.19772058638960313	0.20440429403365765
3783.142	-0.5669559599346211	1.9158285156539865	-2.5469576840351396	0.1965614749242855	0.19961091584567187
3783.184	-0.573432848670151	1.9114114999404812	-2.539009451505927	0.19673717520468154	0.19204078401130298
3783.206	-0.579911877230687	1.9069048258933454	-2.53166399009796	0.19726633293438448	0.18079963892460174
3783.243	-0.5863762262951712	1.9023557018403143	-2.5243484937416465	0.19726508418445335	0.18299123509046458
3783.283	-0.5928082562925318	1.8977630414893607	-2.516936436653465	0.19754504034505688	0.18562860033456322
3783.323	-0.5992231419944385	1.8931276025463784	-2.5092820570173147	0.1985223167302475	0.2090391594206114
3783.361	-0.6055960467303231	1.8884284819991262	-2.5011337324446905	0.19863395165396128	0.2027463376169598
3783.409	-0.6119033054786367	1.8836898292634652	-2.493118671687267	0.19683888860275575	0.1913991666681697
3783.461	-0.6181667000883587	1.8788942361941774	-2.48569899352428	0.19718611326898644	0.18125999953857463
3783.491	-0.6244120196194705	1.8740560766704912	-2.4783473932009534	0.19734352588351453	0.18143924339508238
3783.527	-0.6306241958390333	1.8691759041950498	-2.4709123584399464	0.19725548946931387	0.18679721516461958
3783.565	-0.6367987567395198	1.8642531018741142	-2.463371966706838	0.19721949575294956	0.19038773132611203
3783.602	-0.6429411624783244	1.859288975063512	-2.4554363627119833	0.19766846813712502	0.19947291614402538
3783.638	-0.6490236466510967	1.8542689359374056	-2.4473527578060863	0.19585683198701354	0.1994094845280938
3783.686	-0.6550426380290821	1.8492025201944768	-2.4397432250817706	0.19719181386271376	0.1834523518259845
3783.713	-0.6610524614183667	1.844082918356483	-2.432396718778332	0.1973792510930421	0.18275078060046757
3783.752	-0.6670290080130125	1.8389207090925788	-2.4250591317782924	0.19772956072993952	0.1836279483425975
3783.811	-0.67296912397292	1.8337159353098291	-2.4176444549822973	0.1977570271044608	0.18775076311720001
3783.866	-0.6788764700738472	1.8284690609920307	-2.410102267859102	0.19851474474108455	0.19667650461581296
3783.915	-0.6847559437896562	1.8231674948482426	-2.4020309582212134	0.19712667811433304	0.2003425903961458
3783.939	-0.6905570908163194	1.8178308059777357	-2.394177468547465	0.1969343444000379	0.18780451234484374
3783.993	-0.6963195993929577	1.8124374702154435	-2.3867671557086862	0.197578233154035	0.18516832956638893
3784.022	-0.7020521478020529	1.8070094409336321	-2.379426001263963	0.19739247403920568	0.18022568399480834
3784.064	-0.7077467126227005	1.8015391714901106	-2.3720437222180726	0.1970786480991955	0.18588192193439257
3784.092	-0.7134018515429907	1.7960324135238002	-2.36452119713861	0.19712092120039237	0.1898956749914105
3784.135	-0.7190115422177895	1.790500596168219	-2.356619881541429	0.19554280791932938	0.2061132959515113
3784.168	-0.7245432400503866	1.784929042114909	-2.3484455830147133	0.19712019693466643	0.20275187760792587
3784.203	-0.7300380811207687	1.7792872585547221	-2.340914598086148	0.1975368494430012	0.18538584185036416
3784.268	-0.7355095252501481	1.773602432266314	-2.333530385466617	0.19695078722572562	0.18258733642528216
3784.303	-0.7409424428083451	1.7678760028261227	-2.326206993614347	0.1977892598308603	0.1826252425298029
3784.345	-0.7463366466518807	1.7621102960058561	-2.318872217119854	0.19710290272917402	0.182616584461915
3784.376	-0.7516896702886239	1.7563050657861936	-2.3114573363062285	0.1974059325634069	0.18832725071818146
3784.42	-0.7570079207197353	1.750462885930679	-2.303876356651281	0.19824383981091878	0.19926500631171742
3784.468	-0.7622960750979749	1.7445511153792024	-2.295864868822351	0.19808265051754897	0.19800302639021686
3784.504	-0.7674968339587666	1.7386232638082126	-2.2882021052520436	0.19648378332517347	0.18082055825328427
3784.546	-0.7726601462495128	1.7326612876001495	-2.280728365736218	0.19710434467308513	0.18528909395800122
3784.573	-0.7777817847386365	1.7266594918112053	-2.273204360147573	0.19711489572327576	0.18753284061925088
3784.615	-0.7828663549701995	1.7206195745960495	-2.265595914413164	0.1983350534851263	0.19830165795856133
3784.652	-0.7878874227632238	1.7145556427027409	-2.257555444223069	0.1968632687866183	0.2028872387420674
3784.69	-0.7928514049059662	1.7084384137058624	-2.2498547526575425	0.19744200763598854	0.1873974750828422
3784.725	-0.7977813543460314	1.7022723387059189	-2.2424523833315324	0.19726836959401964	0.181481610561744
3784.788	-0.8026701670089033	1.696067556123197	-2.2351558334699337	0.19804116662425053	0.1808982710917063
3784.814	-0.8075200355485561	1.6898260475658986	-2.2278948728562673	0.1980616923144429	0.18338969712616102
3784.855	-0.8123317430499046	1.6835473112626032	-2.220601742602625	0.19765821058213856	0.18027733199831944
3784.884	-0.8170990575244781	1.6772306106636996	-2.213223744574547	0.19752334221719553	0.18727180998342427
3784.934	-0.8218159519077366	1.6708929223094773	-2.2055683682216856	0.19689296464174214	0.19635607806079447
3784.961	-0.8264600843939087	1.6645292516825612	-2.197698328005503	0.19757965551283574	0.19566755017405055
3784.997	-0.8310528991937057	1.6581340291108153	-2.1899584682541087	0.1975486785447017	0.18677474525278126
3785.043	-0.8356090093515356	1.651688235176786	-2.182459883653279	0.1975562106951287	0.18909152548728345
3785.09	-0.8401201416752302	1.6452043469381734	-2.1749564331887252	0.19702012086556042	0.18792335053392673
3785.121	-0.8445886668381397	1.6386787508368077	-2.1675427732815247	0.19760248250385648	0.18553444802573074
3785.177	-0.8490071691596197	1.6321220557610903	-2.160122698610049	0.19793772112064528	0.18617926269510654
3785.206	-0.8533805337049458	1.625535277336595	-2.1526369308683035	0.1967984823704664	0.19018834946571023
3785.248	-0.8577009106685289	1.6189130754131043	-2.14512237481889	0.19752223196809415	0.1930004547347305
3785.281	-0.8619654911388009	1.6122634496443147	-2.137547056618287	0.19721012524898912	0.18163073837601487
3785.322	-0.8661886651762927	1.6055718364032137	-2.1300896318935285	0.19783089229185907	0.18688453864533155
3785.362	-0.8703681115096213	1.5988462204084437	-2.1225640163864803	0.19750454782982022	0.1889499255940791
3785.409	-0.8744833850103296	1.5920977063928359	-2.114972904691218	0.19744227081494728	0.1857203486553674
3785.45	-0.8785522728114638	1.5853173417868724	-2.1073882682784975	0.19721804209233104	0.19453002408698383
3785.482	-0.8825625119203322	1.5785157543110373	-2.0997766194005414	0.19698254543873575	0.19368119413828883
3785.535	-0.886527120526743	1.571673968589285	-2.092245715594257	0.1977913797667777	0.18800599146477467
3785.562	-0.8904390018098287	1.5647968643093464	-2.0847840958700243	0.19750961811196596	0.18144949984584463
3785.605	-0.8943053480349493	1.557886275854153	-2.077323397660981	0.19805182475030175	0.19071755715734312
3785.637	-0.8981229069604302	1.5509504971826304	-2.069838877008359	0.19800094398137533	0.18785087921543966
3785.682	-0.9018865296770392	1.5439836072798223	-2.0624200256633967	0.19822193988930373	0.19079190239626043
3785.735	-0.9055969855607973	1.53698917408405	-2.054943118714214	0.1974722140704704	0.18863168498142258
3785.773	-0.9092587670382819	1.5299613249483446	-2.0473923541869836	0.1973580813115574	0.18778079528324465
3785.811	-0.9128635337192599	1.5229102347041779	-2.039860892196917	0.1982516217731401	0.18921949767559887
3785.852	-0.9164126516586854	1.5158366801149168	-2.032315141223774	0.1976650328229279	0.18619614741693896
3785.898	-0.9199083543646515	1.5087359181477875	-2.0247971182360422	0.19794952593062015	0.1885642934501293
3785.935	-0.9233575109978992	1.501602424569417	-2.0172833400283268	0.1976424216171278	0.18459187287840564
3785.962	-0.9267460771369433	1.4944440685958162	-2.009806640541774	0.20012294646810638	0.19119627991921706
3786.018	-0.9300833609294844	1.4872588144350956	-2.0023755625227677	0.19767137894030468	0.18185786702656453
3786.044	-0.9333688608766153	1.4800482809421895	-1.9949655864516678	0.19939475041809862	0.19099387946609983
3786.085	-0.9366058625466642	1.472816367704471	-1.9875083244792489	0.19761176535934022	0.18930589836619066
3786.121	-0.9397858853614471	1.4655563702996894	-1.9799672806707675	0.19784324728122632	0.18656374371425233
3786.163	-0.942902174058842	1.4582758242898821	-1.9725601724358397	0.19823999304230486	0.18707678599448646
3786.213	-0.9459719288996449	1.4509757633425013	-1.965133560365395	0.19755713803229982	0.18472369999045624
3786.253	-0.9489902254954427	1.443648769562843	-1.9576438925733541	0.1974368771341196	0.1856256327752009
3786.287	-0.9519532347464824	1.436300988272237	-1.9501114240173398	0.19801007965656212	0.1896792271351302
3786.339	-0.9548572318177739	1.4289254775536981	-1.9426006173631658	0.19831724348178859	0.18849684141195766
3786.362	-0.9577028611690106	1.421530266656461	-1.9351503116650088	0.1980031601673813	0.18532573617165482
3786.399	-0.9604986895995762	1.4141082357283286	-1.9277065893416414	0.19824359930643812	0.18655487423604136
3786.44	-0.9632436904285588	1.4066653974929948	-1.9202635111463695	0.19844017545878626	0.186244002926786
3786.482	-0.9659265519390097	1.3992047421527074	-1.9128330475376545	0.19751124787662142	0.18438386850333052
3786.521	-0.9685566923400549	1.3917247235748929	-1.9053595605925353	0.1978272957855828	0.18470277637942042
3786.563	-0.9711317799923659	1.3842250301811243	-1.8978798146548048	0.1980433394450189	0.1846515410806555
3786.602	-0.9736518960254036	1.3767067469195533	-1.8903705983722423	0.19782696111046252	0.18692134945883881
3786.657	-0.9761131327285786	1.3691707460429152	-1.8828450303404705	0.19806153199040463	0.18880030035274314
3786.683	-0.9785181883271723	1.3616107907007184	-1.8753310379290131	0.19824500306901116	0.18870593557309073
3786.721	-0.9808671997368349	1.354033843832326	-1.8678194719068575	0.19759536518024812	0.1873717261130058
3786.759	-0.9831584081640437	1.3464370202561053	-1.860341192157927	0.1979559516499562	0.18566167230141067
3786.811	-0.98539309918378	1.3388210311552653	-1.8528849679850596	0.19805194267394224	0.18418680585214142
3786.854	-0.9875734254226154	1.3311876059249494	-1.845424051223644	0.19807073757237023	0.18380226468557107
3786.882	-0.9896960592242355	1.3235377409795983	-1.8379615320692362	0.19894458168727394	0.1903641659602531
3786.931	-0.991760352513421	1.315875923444612	-1.8304758734435618	0.19847395741363405	0.18755674976159692
3786.961	-0.9937682381771201	1.3081985802179508	-1.8229776128031532	0.19853681853912158	0.18530696089754134
3786.997	-0.9957163486378071	1.3005069467633874	-1.8155023126741885	0.19816738925846436	0.18745257940037197
3787.052	-0.9976074802342567	1.2928000557095012	-1.8080061403784458	0.1984787804691973	0.18704238569934226
3787.085	-0.9994438562732664	1.285086552820357	-1.8004673869962604	0.19840938241505227	0.18954165398201167
3787.136	-1.0012208898927888	1.2773464905680803	-1.7929438431790568	0.19823403923315533	0.18757985981814443
3787.191	-1.0029392181784103	1.2695919540913447	-1.7854746082221373	0.19815423169601623	0.18355282539612852
3787.229	-1.0045980528571392	1.2618257469553789	-1.7780156298848544	0.1983939545981961	0.18483307086309747
3787.259	-1.0062008318603495	1.2540464936745237	-1.77054633153376	0.19844259285244636	0.18803782715498651
3787.289	-1.007746814413361	1.2462607571860738	-1.7630481503688986	0.19834386673177723	0.19164473052539266
3787.321	-1.009232728054108	1.2384583654542296	-1.7555536066563526	0.19862808950869043	0.18792538637221298
3787.369	-1.010665709762515	1.2306450827139552	-1.7480559409878382	0.1987405375893605	0.18633127115717996
3787.4	-1.0120329255827543	1.2228266888575632	-1.7405735341352686	0.19836889273237748	0.18679558554323344
3787.463	-1.0133449768913323	1.2149879370896715	-1.733105062988272	0.19855539693238503	0.18782678589920554
3787.513	-1.0145974838131675	1.20714859780895	-1.7256077245087353	0.19814499533235336	0.18880041461143873
3787.552	-1.015791032459305	1.1992924168081642	-1.7181069298579812	0.19805350002002275	0.18660566966359596
3787.584	-1.016929735721576	1.1914210797644795	-1.7106129896061952	0.19839569155548	0.18498374853984237
3787.602	-1.018006870049258	1.1835452843141658	-1.7031340121962628	0.19816563070216112	0.18685830544963145
